,time,genre,ratio
0,1,Hip-Hop,1.0
1,2,Hip-Hop,1.0
2,3,Hip-Hop,0.6665
3,3,Pop,0.3333
4,4,Hip-Hop,0.5
5,4,Pop,0.5
6,5,Hip-Hop,0.6
7,5,Pop,0.4
8,6,Hip-Hop,0.6665
9,6,Pop,0.3333
10,7,Hip-Hop,0.7144
11,7,Pop,0.2856
12,8,Electronic,0.125
13,8,Hip-Hop,0.625
14,8,Pop,0.25
15,9,Electronic,0.1111
16,9,Hip-Hop,0.6665
17,9,Pop,0.2222
18,10,Electronic,0.1
19,10,Hip-Hop,0.6
20,10,Pop,0.3
21,11,Electronic,0.0909
22,11,Hip-Hop,0.636
23,11,Pop,0.2727
24,12,Electronic,0.1666
25,12,Hip-Hop,0.5835
26,12,Pop,0.25
27,13,Electronic,0.1538
28,13,Hip-Hop,0.615
29,13,Pop,0.2307
30,14,Electronic,0.2142
31,14,Hip-Hop,0.5713
32,14,Pop,0.2142
33,15,Electronic,0.2
34,15,Hip-Hop,0.6
35,15,Pop,0.2
36,16,Electronic,0.1875
37,16,Hip-Hop,0.625
38,16,Pop,0.1875
39,17,Electronic,0.1765
40,17,Hip-Hop,0.647
41,17,Pop,0.1765
42,18,Electronic,0.1666
43,18,Hip-Hop,0.6665
44,18,Pop,0.1666
45,19,Electronic,0.2106
46,19,Hip-Hop,0.6313
47,19,Pop,0.1578
48,20,Electronic,0.2
49,20,Hip-Hop,0.65
50,20,Pop,0.15
51,21,Electronic,0.238
52,21,Hip-Hop,0.619
53,21,Pop,0.1428
54,22,Electronic,0.2273
55,22,Hip-Hop,0.636
56,22,Pop,0.1364
57,23,Electronic,0.261
58,23,Hip-Hop,0.609
59,23,Pop,0.1305
60,24,Electronic,0.25
61,24,Hip-Hop,0.5835
62,24,Pop,0.1666
63,25,Electronic,0.28
64,25,Hip-Hop,0.56
65,25,Pop,0.16
66,26,Electronic,0.2693
67,26,Hip-Hop,0.577
68,26,Pop,0.1538
69,27,Electronic,0.2593
70,27,Hip-Hop,0.593
71,27,Pop,0.1482
72,28,Electronic,0.2856
73,28,Hip-Hop,0.5713
74,28,Pop,0.1428
75,29,Electronic,0.276
76,29,Hip-Hop,0.552
77,29,Pop,0.1724
78,30,Electronic,0.2666
79,30,Hip-Hop,0.533
80,30,International,0.03333
81,30,Pop,0.1666
82,31,Electronic,0.258
83,31,Hip-Hop,0.5483
84,31,International,0.03226
85,31,Pop,0.1613
86,32,Electronic,0.2812
87,32,Hip-Hop,0.5312
88,32,International,0.03125
89,32,Pop,0.1562
90,33,Electronic,0.303
91,33,Hip-Hop,0.515
92,33,International,0.0303
93,33,Pop,0.1515
94,34,Electronic,0.2942
95,34,Hip-Hop,0.5293
96,34,International,0.02942
97,34,Pop,0.1471
98,35,Electronic,0.2856
99,35,Hip-Hop,0.543
100,35,International,0.02856
101,35,Pop,0.1428
102,36,Electronic,0.3057
103,36,Hip-Hop,0.528
104,36,International,0.02777
105,36,Pop,0.1389
106,37,Electronic,0.3242
107,37,Hip-Hop,0.5137
108,37,International,0.02702
109,37,Pop,0.1351
110,38,Electronic,0.3157
111,38,Hip-Hop,0.5264
112,38,International,0.02632
113,38,Pop,0.1316
114,39,Electronic,0.3076
115,39,Hip-Hop,0.5386
116,39,International,0.02563
117,39,Pop,0.1282
118,40,Electronic,0.325
119,40,Hip-Hop,0.525
120,40,International,0.025
121,40,Pop,0.125
122,41,Electronic,0.3416
123,41,Hip-Hop,0.512
124,41,International,0.02438
125,41,Pop,0.12195
126,42,Electronic,0.3333
127,42,Hip-Hop,0.524
128,42,International,0.0238
129,42,Pop,0.119
130,43,Electronic,0.3257
131,43,Hip-Hop,0.5347
132,43,International,0.02325
133,43,Pop,0.1163
134,44,Electronic,0.318
135,44,Hip-Hop,0.5454
136,44,International,0.02272
137,44,Pop,0.11365
138,45,Electronic,0.3333
139,45,Hip-Hop,0.533
140,45,International,0.02222
141,45,Pop,0.1111
142,46,Electronic,0.348
143,46,Hip-Hop,0.522
144,46,International,0.02174
145,46,Pop,0.1087
146,47,Electronic,0.3618
147,47,Hip-Hop,0.5107
148,47,International,0.02127
149,47,Pop,0.1064
150,48,Electronic,0.375
151,48,Hip-Hop,0.5
152,48,International,0.02083
153,48,Pop,0.1042
154,49,Electronic,0.3877
155,49,Hip-Hop,0.4897
156,49,International,0.0204
157,49,Pop,0.10205
158,50,Electronic,0.38
159,50,Hip-Hop,0.5
160,50,International,0.02
161,50,Pop,0.1
162,51,Electronic,0.392
163,51,Hip-Hop,0.4902
164,51,International,0.0196
165,51,Pop,0.098
166,52,Electronic,0.3845
167,52,Hip-Hop,0.4807
168,52,International,0.01923
169,52,Pop,0.11536
170,53,Electronic,0.3774
171,53,Hip-Hop,0.4905
172,53,International,0.01888
173,53,Pop,0.1132
174,54,Electronic,0.3704
175,54,Hip-Hop,0.4814
176,54,International,0.01852
177,54,Pop,0.1296
178,55,Electronic,0.3818
179,55,Hip-Hop,0.4727
180,55,International,0.01819
181,55,Pop,0.1273
182,56,Electronic,0.3928
183,56,Hip-Hop,0.4644
184,56,International,0.01785
185,56,Pop,0.125
186,57,Electronic,0.386
187,57,Hip-Hop,0.4736
188,57,International,0.01755
189,57,Pop,0.1228
190,58,Electronic,0.3794
191,58,Hip-Hop,0.4656
192,58,International,0.01724
193,58,Pop,0.138
194,59,Electronic,0.3728
195,59,Hip-Hop,0.4746
196,59,International,0.01695
197,59,Pop,0.1356
198,60,Electronic,0.3667
199,60,Hip-Hop,0.4834
200,60,International,0.01666
201,60,Pop,0.1333
202,61,Electronic,0.3606
203,61,Hip-Hop,0.4917
204,61,International,0.01639
205,61,Pop,0.1311
206,62,Electronic,0.3547
207,62,Hip-Hop,0.5
208,62,International,0.01613
209,62,Pop,0.129
210,63,Electronic,0.365
211,63,Hip-Hop,0.492
212,63,International,0.01587
213,63,Pop,0.127
214,64,Electronic,0.3594
215,64,Hip-Hop,0.5
216,64,International,0.01563
217,64,Pop,0.125
218,65,Electronic,0.3538
219,65,Hip-Hop,0.4922
220,65,International,0.01538
221,65,Pop,0.1384
222,66,Electronic,0.3635
223,66,Hip-Hop,0.4849
224,66,International,0.01515
225,66,Pop,0.1364
226,67,Electronic,0.373
227,67,Hip-Hop,0.4775
228,67,International,0.01492
229,67,Pop,0.1343
230,68,Electronic,0.3677
231,68,Hip-Hop,0.4854
232,68,International,0.01471
233,68,Pop,0.1323
234,69,Electronic,0.3623
235,69,Hip-Hop,0.4783
236,69,International,0.014496
237,69,Pop,0.1449
238,70,Electronic,0.3572
239,70,Hip-Hop,0.4714
240,70,International,0.01428
241,70,Pop,0.1571
242,71,Electronic,0.352
243,71,Hip-Hop,0.4788
244,71,International,0.014084
245,71,Pop,0.1549
246,72,Electronic,0.3472
247,72,Hip-Hop,0.486
248,72,International,0.013885
249,72,Pop,0.1528
250,73,Electronic,0.3425
251,73,Hip-Hop,0.4932
252,73,International,0.0137
253,73,Pop,0.1506
254,74,Electronic,0.338
255,74,Hip-Hop,0.5
256,74,International,0.01351
257,74,Pop,0.1487
258,75,Electronic,0.3333
259,75,Hip-Hop,0.507
260,75,International,0.013336
261,75,Pop,0.1466
262,76,Electronic,0.342
263,76,Hip-Hop,0.5
264,76,International,0.01316
265,76,Pop,0.1448
266,77,Electronic,0.3376
267,77,Hip-Hop,0.4934
268,77,International,0.012985
269,77,Pop,0.1559
270,78,Electronic,0.3462
271,78,Hip-Hop,0.487
272,78,International,0.01282
273,78,Pop,0.1538
274,79,Electronic,0.3418
275,79,Hip-Hop,0.4937
276,79,International,0.01266
277,79,Pop,0.1519
278,80,Electronic,0.3374
279,80,Hip-Hop,0.5
280,80,International,0.0125
281,80,Pop,0.15
282,81,Electronic,0.3333
283,81,Hip-Hop,0.5063
284,81,International,0.012344
285,81,Pop,0.1482
286,82,Electronic,0.3416
287,82,Hip-Hop,0.5
288,82,International,0.01219
289,82,Pop,0.1464
290,83,Electronic,0.3374
291,83,Hip-Hop,0.506
292,83,International,0.01205
293,83,Pop,0.1445
294,84,Electronic,0.3333
295,84,Hip-Hop,0.5117
296,84,International,0.0119
297,84,Pop,0.1428
298,85,Electronic,0.341
299,85,Hip-Hop,0.506
300,85,International,0.011765
301,85,Pop,0.1412
302,86,Electronic,0.3372
303,86,Hip-Hop,0.5117
304,86,International,0.01163
305,86,Pop,0.1395
306,87,Electronic,0.3333
307,87,Hip-Hop,0.517
308,87,International,0.0115
309,87,Pop,0.138
310,88,Electronic,0.3296
311,88,Hip-Hop,0.511
312,88,International,0.02272
313,88,Pop,0.1364
314,89,Electronic,0.3372
315,89,Hip-Hop,0.506
316,89,International,0.02248
317,89,Pop,0.1349
318,90,Electronic,0.3445
319,90,Hip-Hop,0.5
320,90,International,0.02222
321,90,Pop,0.1333
322,91,Electronic,0.3406
323,91,Hip-Hop,0.5054
324,91,International,0.02197
325,91,Pop,0.1318
326,92,Electronic,0.348
327,92,Hip-Hop,0.5
328,92,International,0.02174
329,92,Pop,0.1305
330,93,Electronic,0.3547
331,93,Hip-Hop,0.4946
332,93,International,0.0215
333,93,Pop,0.129
334,94,Electronic,0.351
335,94,Hip-Hop,0.5
336,94,International,0.02127
337,94,Pop,0.1277
338,95,Electronic,0.3474
339,95,Hip-Hop,0.5054
340,95,International,0.02106
341,95,Pop,0.1263
342,96,Electronic,0.3438
343,96,Hip-Hop,0.5103
344,96,International,0.02083
345,96,Pop,0.125
346,97,Electronic,0.34
347,97,Hip-Hop,0.5054
348,97,International,0.02061
349,97,Pop,0.134
350,98,Electronic,0.3367
351,98,Hip-Hop,0.5103
352,98,International,0.0204
353,98,Pop,0.1327
354,99,Electronic,0.3333
355,99,Hip-Hop,0.515
356,99,International,0.0202
357,99,Pop,0.1313
358,100,Electronic,0.33
359,100,Hip-Hop,0.52
360,100,International,0.02
361,100,Pop,0.13
362,101,Electronic,0.3367
363,101,Hip-Hop,0.5146
364,101,International,0.0198
365,101,Pop,0.1287
366,102,Electronic,0.3333
367,102,Hip-Hop,0.51
368,102,International,0.02942
369,102,Pop,0.1274
370,103,Electronic,0.33
371,103,Hip-Hop,0.505
372,103,International,0.02913
373,103,Pop,0.1359
374,104,Electronic,0.3364
375,104,Hip-Hop,0.5
376,104,International,0.02884
377,104,Pop,0.1346
378,105,Electronic,0.3428
379,105,Hip-Hop,0.495
380,105,International,0.02856
381,105,Pop,0.1333
382,106,Electronic,0.3396
383,106,Hip-Hop,0.5
384,106,International,0.0283
385,106,Pop,0.1321
386,107,Electronic,0.3457
387,107,Hip-Hop,0.4954
388,107,International,0.02803
389,107,Pop,0.1309
390,108,Electronic,0.3518
391,108,Hip-Hop,0.4907
392,108,International,0.02777
393,108,Pop,0.1296
394,109,Electronic,0.3486
395,109,Hip-Hop,0.4954
396,109,International,0.02753
397,109,Pop,0.1284
398,110,Electronic,0.3545
399,110,Hip-Hop,0.491
400,110,International,0.02727
401,110,Pop,0.1273
402,111,Electronic,0.3513
403,111,Hip-Hop,0.4956
404,111,International,0.02702
405,111,Pop,0.1261
406,112,Electronic,0.3572
407,112,Hip-Hop,0.491
408,112,International,0.02678
409,112,Pop,0.125
410,113,Electronic,0.354
411,113,Hip-Hop,0.4956
412,113,International,0.02655
413,113,Pop,0.1239
414,114,Electronic,0.3508
415,114,Hip-Hop,0.5
416,114,International,0.02632
417,114,Pop,0.1228
418,115,Electronic,0.348
419,115,Hip-Hop,0.5044
420,115,International,0.0261
421,115,Pop,0.12177
422,116,Electronic,0.3535
423,116,Hip-Hop,0.5
424,116,International,0.02586
425,116,Pop,0.12067
426,117,Electronic,0.3503
427,117,Hip-Hop,0.5044
428,117,International,0.02563
429,117,Pop,0.1196
430,118,Electronic,0.3474
431,118,Hip-Hop,0.5083
432,118,International,0.02542
433,118,Pop,0.11865
434,119,Electronic,0.353
435,119,Hip-Hop,0.5044
436,119,International,0.0252
437,119,Pop,0.1177
438,120,Electronic,0.3584
439,120,Hip-Hop,0.5
440,120,International,0.025
441,120,Pop,0.11664
442,121,Electronic,0.3555
443,121,Hip-Hop,0.504
444,121,International,0.0248
445,121,Pop,0.1157
446,122,Electronic,0.3525
447,122,Hip-Hop,0.5083
448,122,International,0.0246
449,122,Pop,0.11475
450,123,Electronic,0.3496
451,123,Hip-Hop,0.512
452,123,International,0.02438
453,123,Pop,0.11383
454,124,Electronic,0.3467
455,124,Hip-Hop,0.516
456,124,International,0.0242
457,124,Pop,0.1129
458,125,Electronic,0.344
459,125,Hip-Hop,0.52
460,125,International,0.024
461,125,Pop,0.112
462,126,Electronic,0.3413
463,126,Hip-Hop,0.524
464,126,International,0.0238
465,126,Pop,0.1111
466,127,Electronic,0.3464
467,127,Hip-Hop,0.5195
468,127,International,0.02362
469,127,Pop,0.1102
470,128,Electronic,0.3438
471,128,Hip-Hop,0.5234
472,128,International,0.02344
473,128,Pop,0.1094
474,129,Electronic,0.3489
475,129,Hip-Hop,0.5195
476,129,International,0.02325
477,129,Pop,0.1085
478,130,Electronic,0.3462
479,130,Hip-Hop,0.523
480,130,International,0.02307
481,130,Pop,0.10767
482,131,Electronic,0.3435
483,131,Hip-Hop,0.527
484,131,International,0.0229
485,131,Pop,0.1069
486,132,Electronic,0.3408
487,132,Hip-Hop,0.523
488,132,International,0.02272
489,132,Pop,0.11365
490,133,Electronic,0.3384
491,133,Hip-Hop,0.5264
492,133,International,0.02255
493,133,Pop,0.1128
494,134,Electronic,0.3433
495,134,Hip-Hop,0.5225
496,134,International,0.02238
497,134,Pop,0.11194
498,135,Electronic,0.3481
499,135,Hip-Hop,0.5186
500,135,International,0.02222
501,135,Pop,0.1111
502,136,Electronic,0.3457
503,136,Hip-Hop,0.522
504,136,International,0.02206
505,136,Pop,0.1103
506,137,Electronic,0.3503
507,137,Hip-Hop,0.518
508,137,International,0.0219
509,137,Pop,0.1095
510,138,Electronic,0.355
511,138,Hip-Hop,0.5146
512,138,International,0.02174
513,138,Pop,0.1087
514,139,Electronic,0.3596
515,139,Hip-Hop,0.5107
516,139,International,0.02158
517,139,Pop,0.1079
518,140,Electronic,0.3572
519,140,Hip-Hop,0.514
520,140,International,0.02142
521,140,Pop,0.1071
522,141,Electronic,0.3545
523,141,Hip-Hop,0.5176
524,141,International,0.02127
525,141,Pop,0.1064
526,142,Electronic,0.3591
527,142,Hip-Hop,0.514
528,142,International,0.02113
529,142,Pop,0.10565
530,143,Electronic,0.3567
531,143,Hip-Hop,0.5176
532,143,International,0.02098
533,143,Pop,0.1049
534,144,Electronic,0.3542
535,144,Hip-Hop,0.521
536,144,International,0.02083
537,144,Pop,0.1042
538,145,Electronic,0.3518
539,145,Hip-Hop,0.524
540,145,International,0.02069
541,145,Pop,0.10345
542,146,Electronic,0.3494
543,146,Hip-Hop,0.5273
544,146,International,0.02055
545,146,Pop,0.1027
546,147,Electronic,0.3538
547,147,Hip-Hop,0.524
548,147,International,0.0204
549,147,Pop,0.10205
550,148,Electronic,0.3513
551,148,Hip-Hop,0.527
552,148,International,0.02026
553,148,Pop,0.1014
554,149,Electronic,0.3557
555,149,Hip-Hop,0.5234
556,149,International,0.02014
557,149,Pop,0.10065
558,150,Electronic,0.36
559,150,Hip-Hop,0.52
560,150,International,0.02
561,150,Pop,0.1
562,151,Electronic,0.3577
563,151,Hip-Hop,0.523
564,151,International,0.01987
565,151,Pop,0.09937
566,152,Electronic,0.3552
567,152,Hip-Hop,0.5264
568,152,International,0.01973
569,152,Pop,0.0987
570,153,Electronic,0.353
571,153,Hip-Hop,0.5293
572,153,International,0.0196
573,153,Pop,0.098
574,154,Electronic,0.3506
575,154,Hip-Hop,0.532
576,154,International,0.01949
577,154,Pop,0.0974
578,155,Electronic,0.3547
579,155,Hip-Hop,0.529
580,155,International,0.01935
581,155,Pop,0.0968
582,156,Electronic,0.359
583,156,Hip-Hop,0.526
584,156,International,0.01923
585,156,Pop,0.0961
586,157,Electronic,0.3567
587,157,Hip-Hop,0.5225
588,157,International,0.0191
589,157,Pop,0.1019
590,158,Electronic,0.3545
591,158,Hip-Hop,0.5254
592,158,International,0.01898
593,158,Pop,0.10126
594,159,Electronic,0.3523
595,159,Hip-Hop,0.5283
596,159,International,0.01888
597,159,Pop,0.10065
598,160,Electronic,0.3562
599,160,Hip-Hop,0.525
600,160,International,0.01875
601,160,Pop,0.1
602,161,Electronic,0.3604
603,161,Hip-Hop,0.522
604,161,International,0.01863
605,161,Pop,0.09937
606,162,Electronic,0.358
607,162,Hip-Hop,0.525
608,162,International,0.01852
609,162,Pop,0.09875
610,163,Electronic,0.3557
611,163,Hip-Hop,0.528
612,163,International,0.0184
613,163,Pop,0.09814
614,164,Electronic,0.3538
615,164,Hip-Hop,0.5303
616,164,International,0.0183
617,164,Pop,0.09753
618,165,Electronic,0.3577
619,165,Hip-Hop,0.5273
620,165,International,0.01819
621,165,Pop,0.097
622,166,Electronic,0.3613
623,166,Hip-Hop,0.524
624,166,International,0.01807
625,166,Pop,0.0964
626,167,Electronic,0.3594
627,167,Hip-Hop,0.521
628,167,International,0.01796
629,167,Pop,0.1018
630,168,Electronic,0.3572
631,168,Hip-Hop,0.524
632,168,International,0.01785
633,168,Pop,0.1012
634,169,Electronic,0.355
635,169,Hip-Hop,0.527
636,169,International,0.01775
637,169,Pop,0.1006
638,170,Electronic,0.359
639,170,Hip-Hop,0.5234
640,170,International,0.01765
641,170,Pop,0.1
642,171,Electronic,0.3567
643,171,Hip-Hop,0.5205
644,171,International,0.01755
645,171,Pop,0.1053
646,172,Electronic,0.3604
647,172,Hip-Hop,0.5176
648,172,International,0.01744
649,172,Pop,0.1047
650,173,Electronic,0.3584
651,173,Hip-Hop,0.52
652,173,International,0.01733
653,173,Pop,0.10406
654,174,Electronic,0.3562
655,174,Hip-Hop,0.523
656,174,International,0.01724
657,174,Pop,0.10345
658,175,Electronic,0.3542
659,175,Hip-Hop,0.52
660,175,International,0.01714
661,175,Pop,0.1086
662,176,Electronic,0.3523
663,176,Hip-Hop,0.523
664,176,International,0.01704
665,176,Pop,0.108
666,177,Electronic,0.3503
667,177,Hip-Hop,0.5254
668,177,International,0.01695
669,177,Pop,0.10736
670,178,Electronic,0.354
671,178,Hip-Hop,0.5225
672,178,International,0.01686
673,178,Pop,0.10675
674,179,Electronic,0.3574
675,179,Hip-Hop,0.5195
676,179,International,0.01675
677,179,Pop,0.10614
678,180,Electronic,0.3555
679,180,Hip-Hop,0.5225
680,180,International,0.01666
681,180,Pop,0.1055
682,181,Electronic,0.3591
683,181,Hip-Hop,0.5195
684,181,International,0.01657
685,181,Pop,0.105
686,182,Electronic,0.3625
687,182,Hip-Hop,0.5166
688,182,International,0.01648
689,182,Pop,0.1044
690,183,Electronic,0.3606
691,183,Hip-Hop,0.5137
692,183,International,0.01639
693,183,Pop,0.1093
694,184,Electronic,0.3586
695,184,Hip-Hop,0.516
696,184,International,0.01631
697,184,Pop,0.1087
698,185,Electronic,0.362
699,185,Hip-Hop,0.5137
700,185,International,0.01622
701,185,Pop,0.1081
702,186,Electronic,0.36
703,186,Hip-Hop,0.516
704,186,International,0.01613
705,186,Pop,0.10754
706,187,Electronic,0.3635
707,187,Hip-Hop,0.513
708,187,International,0.01604
709,187,Pop,0.10693
710,188,Electronic,0.3618
711,188,Hip-Hop,0.5107
712,188,International,0.01596
713,188,Pop,0.1117
714,189,Electronic,0.365
715,189,Hip-Hop,0.508
716,189,International,0.01587
717,189,Pop,0.1111
718,190,Electronic,0.363
719,190,Hip-Hop,0.5107
720,190,International,0.0158
721,190,Pop,0.11053
722,191,Electronic,0.3665
723,191,Hip-Hop,0.508
724,191,International,0.0157
725,191,Pop,0.1099
726,192,Electronic,0.3645
727,192,Hip-Hop,0.5103
728,192,International,0.01563
729,192,Pop,0.1094
730,193,Electronic,0.3628
731,193,Hip-Hop,0.513
732,193,International,0.01554
733,193,Pop,0.1088
734,194,Electronic,0.3608
735,194,Hip-Hop,0.5156
736,194,International,0.015465
737,194,Pop,0.1083
738,195,Electronic,0.364
739,195,Hip-Hop,0.5127
740,195,International,0.01538
741,195,Pop,0.10767
742,196,Electronic,0.3623
743,196,Hip-Hop,0.515
744,196,International,0.015305
745,196,Pop,0.1071
746,197,Electronic,0.3604
747,197,Hip-Hop,0.5176
748,197,International,0.01523
749,197,Pop,0.1066
750,198,Electronic,0.3586
751,198,Hip-Hop,0.52
752,198,International,0.01515
753,198,Pop,0.1061
754,199,Electronic,0.3618
755,199,Hip-Hop,0.5176
756,199,International,0.015076
757,199,Pop,0.1055
758,200,Electronic,0.36
759,200,Hip-Hop,0.515
760,200,International,0.015
761,200,Pop,0.11
762,201,Electronic,0.3582
763,201,Hip-Hop,0.5176
764,201,International,0.01492
765,201,Pop,0.10944
766,202,Electronic,0.3564
767,202,Hip-Hop,0.52
768,202,International,0.014854
769,202,Pop,0.1089
770,203,Electronic,0.3547
771,203,Hip-Hop,0.522
772,203,International,0.01478
773,203,Pop,0.1084
774,204,Electronic,0.353
775,204,Hip-Hop,0.5195
776,204,Instrumental,0.0049
777,204,International,0.01471
778,204,Pop,0.10785
779,205,Electronic,0.3513
780,205,Hip-Hop,0.522
781,205,Instrumental,0.00488
782,205,International,0.01463
783,205,Pop,0.1073
784,206,Electronic,0.3542
785,206,Hip-Hop,0.5195
786,206,Instrumental,0.004856
787,206,International,0.014565
788,206,Pop,0.1068
789,207,Electronic,0.3525
790,207,Hip-Hop,0.522
791,207,Instrumental,0.00483
792,207,International,0.014496
793,207,Pop,0.10626
794,208,Electronic,0.3557
795,208,Hip-Hop,0.519
796,208,Instrumental,0.004807
797,208,International,0.01442
798,208,Pop,0.1058
799,209,Electronic,0.354
800,209,Hip-Hop,0.5215
801,209,Instrumental,0.004784
802,209,International,0.01435
803,209,Pop,0.1053
804,210,Electronic,0.3572
805,210,Hip-Hop,0.519
806,210,Instrumental,0.00476
807,210,International,0.01428
808,210,Pop,0.10474
809,211,Electronic,0.3555
810,211,Hip-Hop,0.5166
811,211,Instrumental,0.004738
812,211,International,0.01422
813,211,Pop,0.109
814,212,Electronic,0.3584
815,212,Hip-Hop,0.514
816,212,Instrumental,0.00472
817,212,International,0.01415
818,212,Pop,0.1085
819,213,Electronic,0.3567
820,213,Hip-Hop,0.5166
821,213,Instrumental,0.004696
822,213,International,0.014084
823,213,Pop,0.108
824,214,Electronic,0.3552
825,214,Hip-Hop,0.5186
826,214,Instrumental,0.004673
827,214,International,0.014015
828,214,Pop,0.1075
829,215,Electronic,0.3582
830,215,Hip-Hop,0.516
831,215,Instrumental,0.00465
832,215,International,0.013954
833,215,Pop,0.107
834,216,Electronic,0.3564
835,216,Hip-Hop,0.5137
836,216,Instrumental,0.00463
837,216,International,0.013885
838,216,Pop,0.1111
839,217,Electronic,0.3547
840,217,Hip-Hop,0.516
841,217,Instrumental,0.00461
842,217,International,0.013824
843,217,Pop,0.1106
844,218,Electronic,0.3533
845,218,Hip-Hop,0.5186
846,218,Instrumental,0.004585
847,218,International,0.01376
848,218,Pop,0.1101
849,219,Electronic,0.3516
850,219,Hip-Hop,0.5205
851,219,Instrumental,0.004566
852,219,International,0.0137
853,219,Pop,0.1096
854,220,Electronic,0.35
855,220,Hip-Hop,0.518
856,220,Instrumental,0.004547
857,220,International,0.01363
858,220,Pop,0.11365
859,221,Electronic,0.3484
860,221,Hip-Hop,0.5205
861,221,Instrumental,0.004524
862,221,International,0.01357
863,221,Pop,0.1131
864,222,Electronic,0.3513
865,222,Hip-Hop,0.518
866,222,Instrumental,0.004505
867,222,International,0.01351
868,222,Pop,0.1126
869,223,Electronic,0.3542
870,223,Hip-Hop,0.5156
871,223,Instrumental,0.004486
872,223,International,0.01345
873,223,Pop,0.1121
874,224,Electronic,0.3572
875,224,Hip-Hop,0.513
876,224,Instrumental,0.004463
877,224,International,0.01339
878,224,Pop,0.11163
879,225,Electronic,0.3555
880,225,Hip-Hop,0.5156
881,225,Instrumental,0.004444
882,225,International,0.013336
883,225,Pop,0.1111
884,226,Electronic,0.3584
885,226,Hip-Hop,0.513
886,226,Instrumental,0.004425
887,226,International,0.013275
888,226,Pop,0.1106
889,227,Electronic,0.357
890,227,Hip-Hop,0.5156
891,227,Instrumental,0.004406
892,227,International,0.013214
893,227,Pop,0.1101
894,228,Electronic,0.3596
895,228,Hip-Hop,0.513
896,228,Instrumental,0.004387
897,228,International,0.01316
898,228,Pop,0.1096
899,229,Electronic,0.3582
900,229,Hip-Hop,0.515
901,229,Instrumental,0.004368
902,229,International,0.0131
903,229,Pop,0.1092
904,230,Electronic,0.3564
905,230,Hip-Hop,0.5176
906,230,Instrumental,0.00435
907,230,International,0.01305
908,230,Pop,0.1087
909,231,Electronic,0.3594
910,231,Hip-Hop,0.515
911,231,Instrumental,0.00433
912,231,International,0.012985
913,231,Pop,0.1082
914,232,Electronic,0.362
915,232,Hip-Hop,0.5127
916,232,Instrumental,0.00431
917,232,International,0.01293
918,232,Pop,0.1078
919,233,Electronic,0.3647
920,233,Hip-Hop,0.5107
921,233,Instrumental,0.00429
922,233,International,0.01288
923,233,Pop,0.1073
924,234,Electronic,0.3633
925,234,Hip-Hop,0.5127
926,234,Instrumental,0.004272
927,234,International,0.01282
928,234,Pop,0.1068
929,235,Electronic,0.3618
930,235,Hip-Hop,0.515
931,235,Instrumental,0.004257
932,235,International,0.012764
933,235,Pop,0.1064
934,236,Electronic,0.36
935,236,Hip-Hop,0.517
936,236,Instrumental,0.00424
937,236,International,0.01271
938,236,Pop,0.10596
939,237,Electronic,0.3628
940,237,Hip-Hop,0.5146
941,237,Instrumental,0.00422
942,237,International,0.01266
943,237,Pop,0.10547
944,238,Electronic,0.3655
945,238,Hip-Hop,0.5127
946,238,Instrumental,0.0042
947,238,International,0.0126
948,238,Pop,0.10504
949,239,Electronic,0.364
950,239,Hip-Hop,0.5103
951,239,Instrumental,0.00837
952,239,International,0.01255
953,239,Pop,0.1046
954,240,Electronic,0.3667
955,240,Hip-Hop,0.5083
956,240,Instrumental,0.00833
957,240,International,0.0125
958,240,Pop,0.1042
959,241,Electronic,0.3652
960,241,Hip-Hop,0.5103
961,241,Instrumental,0.0083
962,241,International,0.01245
963,241,Pop,0.10376
964,242,Electronic,0.3635
965,242,Hip-Hop,0.512
966,242,Instrumental,0.00826
967,242,International,0.0124
968,242,Pop,0.10333
969,243,Electronic,0.362
970,243,Hip-Hop,0.5103
971,243,Instrumental,0.00823
972,243,International,0.01646
973,243,Pop,0.1029
974,244,Electronic,0.3606
975,244,Hip-Hop,0.5083
976,244,Instrumental,0.008194
977,244,International,0.01639
978,244,Pop,0.10657
979,245,Electronic,0.3591
980,245,Hip-Hop,0.5103
981,245,Instrumental,0.00816
982,245,International,0.01633
983,245,Pop,0.10614
984,246,Electronic,0.3577
985,246,Hip-Hop,0.512
986,246,Instrumental,0.00813
987,246,International,0.01627
988,246,Pop,0.1057
989,247,Electronic,0.3562
990,247,Hip-Hop,0.5103
991,247,Instrumental,0.008095
992,247,International,0.01619
993,247,Pop,0.1093
994,248,Electronic,0.3547
995,248,Hip-Hop,0.512
996,248,Instrumental,0.008064
997,248,International,0.01613
998,248,Pop,0.1089
999,249,Electronic,0.3535
1000,249,Hip-Hop,0.514
1001,249,Instrumental,0.00803
1002,249,International,0.01607
1003,249,Pop,0.10846
1004,250,Electronic,0.352
1005,250,Hip-Hop,0.516
1006,250,Instrumental,0.008
1007,250,International,0.016
1008,250,Pop,0.108
1009,251,Electronic,0.3545
1010,251,Hip-Hop,0.514
1011,251,Instrumental,0.007965
1012,251,International,0.01593
1013,251,Pop,0.10754
1014,252,Electronic,0.3533
1015,252,Hip-Hop,0.516
1016,252,Instrumental,0.007935
1017,252,International,0.01587
1018,252,Pop,0.1071
1019,253,Electronic,0.3518
1020,253,Hip-Hop,0.5176
1021,253,Instrumental,0.007904
1022,253,International,0.01581
1023,253,Pop,0.1067
1024,254,Electronic,0.3503
1025,254,Hip-Hop,0.5195
1026,254,Instrumental,0.00787
1027,254,International,0.01575
1028,254,Pop,0.1063
1029,255,Electronic,0.349
1030,255,Hip-Hop,0.5215
1031,255,Instrumental,0.00784
1032,255,International,0.01569
1033,255,Pop,0.1059
1034,256,Electronic,0.3477
1035,256,Hip-Hop,0.5234
1036,256,Instrumental,0.007812
1037,256,International,0.01563
1038,256,Pop,0.10547
1039,257,Electronic,0.3462
1040,257,Hip-Hop,0.5254
1041,257,Instrumental,0.007782
1042,257,International,0.015564
1043,257,Pop,0.10504
1044,258,Electronic,0.345
1045,258,Hip-Hop,0.5273
1046,258,Instrumental,0.00775
1047,258,International,0.0155
1048,258,Pop,0.1047
1049,259,Electronic,0.3438
1050,259,Hip-Hop,0.529
1051,259,Instrumental,0.00772
1052,259,International,0.01544
1053,259,Pop,0.10425
1054,260,Electronic,0.3423
1055,260,Hip-Hop,0.531
1056,260,Instrumental,0.00769
1057,260,International,0.01538
1058,260,Pop,0.1038
1059,261,Electronic,0.3447
1060,261,Hip-Hop,0.529
1061,261,Instrumental,0.007664
1062,261,International,0.01533
1063,261,Pop,0.10345
1064,262,Electronic,0.3435
1065,262,Hip-Hop,0.531
1066,262,Instrumental,0.007633
1067,262,International,0.01527
1068,262,Pop,0.103
1069,263,Electronic,0.346
1070,263,Hip-Hop,0.5283
1071,263,Instrumental,0.007603
1072,263,International,0.015205
1073,263,Pop,0.10266
1074,264,Electronic,0.3447
1075,264,Hip-Hop,0.5303
1076,264,Instrumental,0.007576
1077,264,International,0.01515
1078,264,Pop,0.1023
1079,265,Electronic,0.3435
1080,265,Hip-Hop,0.532
1081,265,Instrumental,0.007545
1082,265,International,0.01509
1083,265,Pop,0.10187
1084,266,Electronic,0.342
1085,266,Hip-Hop,0.5337
1086,266,Instrumental,0.00752
1087,266,International,0.01504
1088,266,Pop,0.1015
1089,267,Electronic,0.3408
1090,267,Hip-Hop,0.5317
1091,267,Instrumental,0.007492
1092,267,International,0.014984
1093,267,Pop,0.10486
1094,268,Electronic,0.3433
1095,268,Hip-Hop,0.53
1096,268,Instrumental,0.00746
1097,268,International,0.01492
1098,268,Pop,0.1045
1099,269,Electronic,0.342
1100,269,Hip-Hop,0.5317
1101,269,Instrumental,0.007435
1102,269,International,0.01487
1103,269,Pop,0.10406
1104,270,Electronic,0.3408
1105,270,Hip-Hop,0.533
1106,270,Instrumental,0.00741
1107,270,International,0.01482
1108,270,Pop,0.1037
1109,271,Electronic,0.3396
1110,271,Hip-Hop,0.535
1111,271,Instrumental,0.00738
1112,271,International,0.01476
1113,271,Pop,0.10333
1114,272,Electronic,0.3381
1115,272,Hip-Hop,0.533
1116,272,Instrumental,0.007355
1117,272,International,0.01471
1118,272,Pop,0.1066
1119,273,Electronic,0.337
1120,273,Hip-Hop,0.5347
1121,273,Instrumental,0.007324
1122,273,International,0.01465
1123,273,Pop,0.1062
1124,274,Electronic,0.3357
1125,274,Hip-Hop,0.5366
1126,274,Instrumental,0.007298
1127,274,International,0.014595
1128,274,Pop,0.10583
1129,275,Electronic,0.3381
1130,275,Hip-Hop,0.5347
1131,275,Instrumental,0.007275
1132,275,International,0.01455
1133,275,Pop,0.10547
1134,276,Electronic,0.337
1135,276,Hip-Hop,0.536
1136,276,Instrumental,0.007248
1137,276,International,0.014496
1138,276,Pop,0.1051
1139,277,Electronic,0.3357
1140,277,Hip-Hop,0.538
1141,277,Instrumental,0.00722
1142,277,International,0.01444
1143,277,Pop,0.1047
1144,278,Electronic,0.3345
1145,278,Hip-Hop,0.5396
1146,278,Instrumental,0.007195
1147,278,International,0.01439
1148,278,Pop,0.1043
1149,279,Electronic,0.3333
1150,279,Hip-Hop,0.541
1151,279,Instrumental,0.007168
1152,279,International,0.014336
1153,279,Pop,0.10394
1154,280,Electronic,0.332
1155,280,Hip-Hop,0.543
1156,280,Instrumental,0.00714
1157,280,International,0.01428
1158,280,Pop,0.1036
1159,281,Electronic,0.331
1160,281,Hip-Hop,0.5444
1161,281,Instrumental,0.00712
1162,281,International,0.01424
1163,281,Pop,0.1032
1164,282,Electronic,0.3333
1165,282,Hip-Hop,0.5425
1166,282,Instrumental,0.00709
1167,282,International,0.01418
1168,282,Pop,0.10284
1169,283,Electronic,0.3323
1170,283,Hip-Hop,0.544
1171,283,Instrumental,0.00707
1172,283,International,0.01414
1173,283,Pop,0.1025
1174,284,Electronic,0.331
1175,284,Hip-Hop,0.546
1176,284,Instrumental,0.007042
1177,284,International,0.014084
1178,284,Pop,0.1021
1179,285,Electronic,0.3298
1180,285,Hip-Hop,0.5474
1181,285,Instrumental,0.00702
1182,285,International,0.01404
1183,285,Pop,0.10175
1184,286,Electronic,0.3286
1185,286,Hip-Hop,0.549
1186,286,Instrumental,0.006992
1187,286,International,0.013985
1188,286,Pop,0.1014
1189,287,Electronic,0.3276
1190,287,Hip-Hop,0.5503
1191,287,Instrumental,0.00697
1192,287,International,0.01394
1193,287,Pop,0.1011
1194,288,Electronic,0.3298
1195,288,Hip-Hop,0.549
1196,288,Instrumental,0.006943
1197,288,International,0.013885
1198,288,Pop,0.1007
1199,289,Electronic,0.3286
1200,289,Hip-Hop,0.5503
1201,289,Instrumental,0.00692
1202,289,International,0.01384
1203,289,Pop,0.10034
1204,290,Electronic,0.331
1205,290,Hip-Hop,0.5483
1206,290,Instrumental,0.006897
1207,290,International,0.013794
1208,290,Pop,0.1
1209,291,Electronic,0.3333
1210,291,Hip-Hop,0.5464
1211,291,Instrumental,0.006874
1212,291,International,0.01375
1213,291,Pop,0.0997
1214,292,Electronic,0.3323
1215,292,Hip-Hop,0.548
1216,292,Instrumental,0.00685
1217,292,International,0.0137
1218,292,Pop,0.0993
1219,293,Electronic,0.331
1220,293,Hip-Hop,0.546
1221,293,Instrumental,0.006824
1222,293,International,0.01365
1223,293,Pop,0.1024
