,time,genre,ratio
0,0,Electronic,0.2666
1,0,Hip-Hop,0.533
2,0,International,0.03333
3,0,Pop,0.1666
4,1,Electronic,0.2666
5,1,Hip-Hop,0.533
6,1,International,0.03333
7,1,Pop,0.1666
8,2,Electronic,0.3
9,2,Hip-Hop,0.5
10,2,International,0.03333
11,2,Pop,0.1666
12,3,Electronic,0.3333
13,3,Hip-Hop,0.5
14,3,International,0.03333
15,3,Pop,0.1333
16,4,Electronic,0.3333
17,4,Hip-Hop,0.533
18,4,International,0.03333
19,4,Pop,0.1
20,5,Electronic,0.3333
21,5,Hip-Hop,0.533
22,5,International,0.03333
23,5,Pop,0.1
24,6,Electronic,0.3667
25,6,Hip-Hop,0.5
26,6,International,0.03333
27,6,Pop,0.1
28,7,Electronic,0.4
29,7,Hip-Hop,0.4666
30,7,International,0.03333
31,7,Pop,0.1
32,8,Electronic,0.3667
33,8,Hip-Hop,0.5
34,8,International,0.03333
35,8,Pop,0.1
36,9,Electronic,0.3667
37,9,Hip-Hop,0.5
38,9,International,0.03333
39,9,Pop,0.1
40,10,Electronic,0.4
41,10,Hip-Hop,0.5
42,10,International,0.03333
43,10,Pop,0.06665
44,11,Electronic,0.4333
45,11,Hip-Hop,0.4666
46,11,International,0.03333
47,11,Pop,0.06665
48,12,Electronic,0.4
49,12,Hip-Hop,0.5
50,12,International,0.03333
51,12,Pop,0.06665
52,13,Electronic,0.4
53,13,Hip-Hop,0.5
54,13,International,0.03333
55,13,Pop,0.06665
56,14,Electronic,0.3667
57,14,Hip-Hop,0.533
58,14,International,0.03333
59,14,Pop,0.06665
60,15,Electronic,0.4
61,15,Hip-Hop,0.5
62,15,International,0.03333
63,15,Pop,0.06665
64,16,Electronic,0.4333
65,16,Hip-Hop,0.4666
66,16,International,0.03333
67,16,Pop,0.06665
68,17,Electronic,0.4666
69,17,Hip-Hop,0.4333
70,17,International,0.03333
71,17,Pop,0.06665
72,18,Electronic,0.5
73,18,Hip-Hop,0.4
74,18,International,0.03333
75,18,Pop,0.06665
76,19,Electronic,0.5
77,19,Hip-Hop,0.4
78,19,International,0.03333
79,19,Pop,0.06665
80,20,Electronic,0.5
81,20,Hip-Hop,0.4
82,20,International,0.03333
83,20,Pop,0.06665
84,21,Electronic,0.5
85,21,Hip-Hop,0.4
86,21,International,0.03333
87,21,Pop,0.06665
88,22,Electronic,0.5
89,22,Hip-Hop,0.3667
90,22,International,0.03333
91,22,Pop,0.1
92,23,Electronic,0.4666
93,23,Hip-Hop,0.4
94,23,International,0.03333
95,23,Pop,0.1
96,24,Electronic,0.4666
97,24,Hip-Hop,0.4
98,24,International,0.03333
99,24,Pop,0.1
100,25,Electronic,0.4666
101,25,Hip-Hop,0.4
102,25,International,0.03333
103,25,Pop,0.1
104,26,Electronic,0.5
105,26,Hip-Hop,0.3667
106,26,International,0.03333
107,26,Pop,0.1
108,27,Electronic,0.5
109,27,Hip-Hop,0.3667
110,27,International,0.03333
111,27,Pop,0.1
112,28,Electronic,0.4666
113,28,Hip-Hop,0.3667
114,28,International,0.03333
115,28,Pop,0.1333
116,29,Electronic,0.4666
117,29,Hip-Hop,0.4
118,29,International,0.03333
119,29,Pop,0.1
120,30,Electronic,0.4666
121,30,Hip-Hop,0.4333
122,30,Pop,0.1
123,31,Electronic,0.4666
124,31,Hip-Hop,0.4333
125,31,Pop,0.1
126,32,Electronic,0.4333
127,32,Hip-Hop,0.4666
128,32,Pop,0.1
129,33,Electronic,0.4333
130,33,Hip-Hop,0.4666
131,33,Pop,0.1
132,34,Electronic,0.4333
133,34,Hip-Hop,0.4666
134,34,Pop,0.1
135,35,Electronic,0.4333
136,35,Hip-Hop,0.4333
137,35,Pop,0.1333
138,36,Electronic,0.4333
139,36,Hip-Hop,0.4333
140,36,Pop,0.1333
141,37,Electronic,0.4333
142,37,Hip-Hop,0.4333
143,37,Pop,0.1333
144,38,Electronic,0.4333
145,38,Hip-Hop,0.4333
146,38,Pop,0.1333
147,39,Electronic,0.4333
148,39,Hip-Hop,0.4
149,39,Pop,0.1666
150,40,Electronic,0.4
151,40,Hip-Hop,0.4
152,40,Pop,0.2
153,41,Electronic,0.3667
154,41,Hip-Hop,0.4333
155,41,Pop,0.2
156,42,Electronic,0.3667
157,42,Hip-Hop,0.4333
158,42,Pop,0.2
159,43,Electronic,0.3667
160,43,Hip-Hop,0.4333
161,43,Pop,0.2
162,44,Electronic,0.3667
163,44,Hip-Hop,0.4333
164,44,Pop,0.2
165,45,Electronic,0.3333
166,45,Hip-Hop,0.4666
167,45,Pop,0.2
168,46,Electronic,0.3333
169,46,Hip-Hop,0.4666
170,46,Pop,0.2
171,47,Electronic,0.3
172,47,Hip-Hop,0.4666
173,47,Pop,0.2333
174,48,Electronic,0.3
175,48,Hip-Hop,0.4666
176,48,Pop,0.2333
177,49,Electronic,0.2666
178,49,Hip-Hop,0.5
179,49,Pop,0.2333
180,50,Electronic,0.2666
181,50,Hip-Hop,0.5
182,50,Pop,0.2333
183,51,Electronic,0.2333
184,51,Hip-Hop,0.533
185,51,Pop,0.2333
186,52,Electronic,0.2666
187,52,Hip-Hop,0.533
188,52,Pop,0.2
189,53,Electronic,0.2666
190,53,Hip-Hop,0.533
191,53,Pop,0.2
192,54,Electronic,0.2666
193,54,Hip-Hop,0.567
194,54,Pop,0.1666
195,55,Electronic,0.2666
196,55,Hip-Hop,0.567
197,55,Pop,0.1666
198,56,Electronic,0.2333
199,56,Hip-Hop,0.6
200,56,Pop,0.1666
201,57,Electronic,0.2333
202,57,Hip-Hop,0.6
203,57,Pop,0.1666
204,58,Electronic,0.2333
205,58,Hip-Hop,0.6
206,58,International,0.03333
207,58,Pop,0.1333
208,59,Electronic,0.2666
209,59,Hip-Hop,0.567
210,59,International,0.03333
211,59,Pop,0.1333
212,60,Electronic,0.3
213,60,Hip-Hop,0.533
214,60,International,0.03333
215,60,Pop,0.1333
216,61,Electronic,0.3
217,61,Hip-Hop,0.533
218,61,International,0.03333
219,61,Pop,0.1333
220,62,Electronic,0.3333
221,62,Hip-Hop,0.5
222,62,International,0.03333
223,62,Pop,0.1333
224,63,Electronic,0.3333
225,63,Hip-Hop,0.5
226,63,International,0.03333
227,63,Pop,0.1333
228,64,Electronic,0.3333
229,64,Hip-Hop,0.5
230,64,International,0.03333
231,64,Pop,0.1333
232,65,Electronic,0.3333
233,65,Hip-Hop,0.533
234,65,International,0.03333
235,65,Pop,0.1
236,66,Electronic,0.3
237,66,Hip-Hop,0.567
238,66,International,0.03333
239,66,Pop,0.1
240,67,Electronic,0.2666
241,67,Hip-Hop,0.567
242,67,International,0.03333
243,67,Pop,0.1333
244,68,Electronic,0.2666
245,68,Hip-Hop,0.567
246,68,International,0.03333
247,68,Pop,0.1333
248,69,Electronic,0.2666
249,69,Hip-Hop,0.6
250,69,International,0.03333
251,69,Pop,0.1
252,70,Electronic,0.2666
253,70,Hip-Hop,0.6333
254,70,International,0.03333
255,70,Pop,0.06665
256,71,Electronic,0.3
257,71,Hip-Hop,0.6
258,71,International,0.03333
259,71,Pop,0.06665
260,72,Electronic,0.3
261,72,Hip-Hop,0.567
262,72,International,0.06665
263,72,Pop,0.06665
264,73,Electronic,0.3
265,73,Hip-Hop,0.533
266,73,International,0.06665
267,73,Pop,0.1
268,74,Electronic,0.3333
269,74,Hip-Hop,0.5
270,74,International,0.06665
271,74,Pop,0.1
272,75,Electronic,0.3667
273,75,Hip-Hop,0.4666
274,75,International,0.06665
275,75,Pop,0.1
276,76,Electronic,0.3333
277,76,Hip-Hop,0.5
278,76,International,0.06665
279,76,Pop,0.1
280,77,Electronic,0.3667
281,77,Hip-Hop,0.5
282,77,International,0.06665
283,77,Pop,0.06665
284,78,Electronic,0.3667
285,78,Hip-Hop,0.5
286,78,International,0.06665
287,78,Pop,0.06665
288,79,Electronic,0.3667
289,79,Hip-Hop,0.5
290,79,International,0.06665
291,79,Pop,0.06665
292,80,Electronic,0.4
293,80,Hip-Hop,0.4666
294,80,International,0.06665
295,80,Pop,0.06665
296,81,Electronic,0.4
297,81,Hip-Hop,0.4666
298,81,International,0.06665
299,81,Pop,0.06665
300,82,Electronic,0.4
301,82,Hip-Hop,0.4666
302,82,International,0.06665
303,82,Pop,0.06665
304,83,Electronic,0.4
305,83,Hip-Hop,0.4666
306,83,International,0.06665
307,83,Pop,0.06665
308,84,Electronic,0.4
309,84,Hip-Hop,0.4666
310,84,International,0.06665
311,84,Pop,0.06665
312,85,Electronic,0.3667
313,85,Hip-Hop,0.5
314,85,International,0.06665
315,85,Pop,0.06665
316,86,Electronic,0.4
317,86,Hip-Hop,0.4666
318,86,International,0.06665
319,86,Pop,0.06665
320,87,Electronic,0.4
321,87,Hip-Hop,0.4666
322,87,International,0.06665
323,87,Pop,0.06665
324,88,Electronic,0.4
325,88,Hip-Hop,0.5
326,88,International,0.03333
327,88,Pop,0.06665
328,89,Electronic,0.4
329,89,Hip-Hop,0.5
330,89,International,0.03333
331,89,Pop,0.06665
332,90,Electronic,0.4
333,90,Hip-Hop,0.5
334,90,International,0.03333
335,90,Pop,0.06665
336,91,Electronic,0.4
337,91,Hip-Hop,0.5
338,91,International,0.03333
339,91,Pop,0.06665
340,92,Electronic,0.3667
341,92,Hip-Hop,0.533
342,92,International,0.03333
343,92,Pop,0.06665
344,93,Electronic,0.3333
345,93,Hip-Hop,0.567
346,93,International,0.03333
347,93,Pop,0.06665
348,94,Electronic,0.3333
349,94,Hip-Hop,0.567
350,94,International,0.03333
351,94,Pop,0.06665
352,95,Electronic,0.3333
353,95,Hip-Hop,0.567
354,95,International,0.03333
355,95,Pop,0.06665
356,96,Electronic,0.3333
357,96,Hip-Hop,0.567
358,96,International,0.03333
359,96,Pop,0.06665
360,97,Electronic,0.3667
361,97,Hip-Hop,0.567
362,97,International,0.03333
363,97,Pop,0.03333
364,98,Electronic,0.3667
365,98,Hip-Hop,0.567
366,98,International,0.03333
367,98,Pop,0.03333
368,99,Electronic,0.4
369,99,Hip-Hop,0.533
370,99,International,0.03333
371,99,Pop,0.03333
372,100,Electronic,0.4
373,100,Hip-Hop,0.533
374,100,International,0.03333
375,100,Pop,0.03333
376,101,Electronic,0.3667
377,101,Hip-Hop,0.567
378,101,International,0.03333
379,101,Pop,0.03333
380,102,Electronic,0.3667
381,102,Hip-Hop,0.567
382,102,Pop,0.06665
383,103,Electronic,0.3667
384,103,Hip-Hop,0.6
385,103,Pop,0.03333
386,104,Electronic,0.3667
387,104,Hip-Hop,0.6
388,104,Pop,0.03333
389,105,Electronic,0.3667
390,105,Hip-Hop,0.6
391,105,Pop,0.03333
392,106,Electronic,0.3667
393,106,Hip-Hop,0.6
394,106,Pop,0.03333
395,107,Electronic,0.3667
396,107,Hip-Hop,0.6
397,107,Pop,0.03333
398,108,Electronic,0.3667
399,108,Hip-Hop,0.6
400,108,Pop,0.03333
401,109,Electronic,0.4
402,109,Hip-Hop,0.567
403,109,Pop,0.03333
404,110,Electronic,0.3667
405,110,Hip-Hop,0.6
406,110,Pop,0.03333
407,111,Electronic,0.3667
408,111,Hip-Hop,0.6
409,111,Pop,0.03333
410,112,Electronic,0.3667
411,112,Hip-Hop,0.6
412,112,Pop,0.03333
413,113,Electronic,0.3667
414,113,Hip-Hop,0.6
415,113,Pop,0.03333
416,114,Electronic,0.3667
417,114,Hip-Hop,0.6
418,114,Pop,0.03333
419,115,Electronic,0.3667
420,115,Hip-Hop,0.6
421,115,Pop,0.03333
422,116,Electronic,0.3333
423,116,Hip-Hop,0.6333
424,116,Pop,0.03333
425,117,Electronic,0.3667
426,117,Hip-Hop,0.6
427,117,Pop,0.03333
428,118,Electronic,0.3667
429,118,Hip-Hop,0.6
430,118,Pop,0.03333
431,119,Electronic,0.3667
432,119,Hip-Hop,0.6
433,119,Pop,0.03333
434,120,Electronic,0.3667
435,120,Hip-Hop,0.6
436,120,Pop,0.03333
437,121,Electronic,0.3667
438,121,Hip-Hop,0.6
439,121,Pop,0.03333
440,122,Electronic,0.3667
441,122,Hip-Hop,0.6
442,122,Pop,0.03333
443,123,Electronic,0.3667
444,123,Hip-Hop,0.6
445,123,Pop,0.03333
446,124,Electronic,0.3667
447,124,Hip-Hop,0.6
448,124,Pop,0.03333
449,125,Electronic,0.4
450,125,Hip-Hop,0.567
451,125,Pop,0.03333
452,126,Electronic,0.4333
453,126,Hip-Hop,0.533
454,126,Pop,0.03333
455,127,Electronic,0.4
456,127,Hip-Hop,0.533
457,127,Pop,0.06665
458,128,Electronic,0.4
459,128,Hip-Hop,0.533
460,128,Pop,0.06665
461,129,Electronic,0.3667
462,129,Hip-Hop,0.567
463,129,Pop,0.06665
464,130,Electronic,0.4
465,130,Hip-Hop,0.533
466,130,Pop,0.06665
467,131,Electronic,0.4333
468,131,Hip-Hop,0.5
469,131,Pop,0.06665
470,132,Electronic,0.4333
471,132,Hip-Hop,0.533
472,132,Pop,0.03333
473,133,Electronic,0.4333
474,133,Hip-Hop,0.533
475,133,Pop,0.03333
476,134,Electronic,0.4
477,134,Hip-Hop,0.567
478,134,Pop,0.03333
479,135,Electronic,0.4
480,135,Hip-Hop,0.567
481,135,Pop,0.03333
482,136,Electronic,0.4333
483,136,Hip-Hop,0.533
484,136,Pop,0.03333
485,137,Electronic,0.4
486,137,Hip-Hop,0.533
487,137,Pop,0.06665
488,138,Electronic,0.3667
489,138,Hip-Hop,0.567
490,138,Pop,0.06665
491,139,Electronic,0.3333
492,139,Hip-Hop,0.6
493,139,Pop,0.06665
494,140,Electronic,0.3667
495,140,Hip-Hop,0.567
496,140,Pop,0.06665
497,141,Electronic,0.3667
498,141,Hip-Hop,0.533
499,141,Pop,0.1
500,142,Electronic,0.3667
501,142,Hip-Hop,0.533
502,142,Pop,0.1
503,143,Electronic,0.3667
504,143,Hip-Hop,0.533
505,143,Pop,0.1
506,144,Electronic,0.3667
507,144,Hip-Hop,0.533
508,144,Pop,0.1
509,145,Electronic,0.3667
510,145,Hip-Hop,0.5
511,145,Pop,0.1333
512,146,Electronic,0.3667
513,146,Hip-Hop,0.5
514,146,Pop,0.1333
515,147,Electronic,0.3333
516,147,Hip-Hop,0.533
517,147,Pop,0.1333
518,148,Electronic,0.3667
519,148,Hip-Hop,0.5
520,148,Pop,0.1333
521,149,Electronic,0.3667
522,149,Hip-Hop,0.5
523,149,Pop,0.1333
524,150,Electronic,0.3333
525,150,Hip-Hop,0.533
526,150,Pop,0.1333
527,151,Electronic,0.3667
528,151,Hip-Hop,0.5
529,151,Pop,0.1333
530,152,Electronic,0.4
531,152,Hip-Hop,0.4666
532,152,Pop,0.1333
533,153,Electronic,0.4
534,153,Hip-Hop,0.4333
535,153,Pop,0.1666
536,154,Electronic,0.4
537,154,Hip-Hop,0.4333
538,154,Pop,0.1666
539,155,Electronic,0.4
540,155,Hip-Hop,0.4333
541,155,Pop,0.1666
542,156,Electronic,0.3667
543,156,Hip-Hop,0.4666
544,156,Pop,0.1666
545,157,Electronic,0.4
546,157,Hip-Hop,0.4666
547,157,Pop,0.1333
548,158,Electronic,0.4
549,158,Hip-Hop,0.4333
550,158,Pop,0.1666
551,159,Electronic,0.4333
552,159,Hip-Hop,0.4
553,159,Pop,0.1666
554,160,Electronic,0.4
555,160,Hip-Hop,0.4333
556,160,Pop,0.1666
557,161,Electronic,0.4
558,161,Hip-Hop,0.4333
559,161,Pop,0.1666
560,162,Electronic,0.4
561,162,Hip-Hop,0.4333
562,162,Pop,0.1666
563,163,Electronic,0.4
564,163,Hip-Hop,0.4333
565,163,Pop,0.1666
566,164,Electronic,0.4
567,164,Hip-Hop,0.4333
568,164,Pop,0.1666
569,165,Electronic,0.4
570,165,Hip-Hop,0.4333
571,165,Pop,0.1666
572,166,Electronic,0.3667
573,166,Hip-Hop,0.4666
574,166,Pop,0.1666
575,167,Electronic,0.3667
576,167,Hip-Hop,0.5
577,167,Pop,0.1333
578,168,Electronic,0.3667
579,168,Hip-Hop,0.5
580,168,Pop,0.1333
581,169,Electronic,0.4
582,169,Hip-Hop,0.4666
583,169,Pop,0.1333
584,170,Electronic,0.3667
585,170,Hip-Hop,0.4666
586,170,Pop,0.1666
587,171,Electronic,0.3667
588,171,Hip-Hop,0.5
589,171,Pop,0.1333
590,172,Electronic,0.3333
591,172,Hip-Hop,0.533
592,172,Pop,0.1333
593,173,Electronic,0.3333
594,173,Hip-Hop,0.533
595,173,Pop,0.1333
596,174,Electronic,0.3333
597,174,Hip-Hop,0.5
598,174,Instrumental,0.03333
599,174,Pop,0.1333
600,175,Electronic,0.3333
601,175,Hip-Hop,0.533
602,175,Instrumental,0.03333
603,175,Pop,0.1
604,176,Electronic,0.3667
605,176,Hip-Hop,0.5
606,176,Instrumental,0.03333
607,176,Pop,0.1
608,177,Electronic,0.3667
609,177,Hip-Hop,0.5
610,177,Instrumental,0.03333
611,177,Pop,0.1
612,178,Electronic,0.3667
613,178,Hip-Hop,0.5
614,178,Instrumental,0.03333
615,178,Pop,0.1
616,179,Electronic,0.3333
617,179,Hip-Hop,0.533
618,179,Instrumental,0.03333
619,179,Pop,0.1
620,180,Electronic,0.3667
621,180,Hip-Hop,0.5
622,180,Instrumental,0.03333
623,180,Pop,0.1
624,181,Electronic,0.3333
625,181,Hip-Hop,0.5
626,181,Instrumental,0.03333
627,181,Pop,0.1333
628,182,Electronic,0.3333
629,182,Hip-Hop,0.5
630,182,Instrumental,0.03333
631,182,Pop,0.1333
632,183,Electronic,0.3333
633,183,Hip-Hop,0.533
634,183,Instrumental,0.03333
635,183,Pop,0.1
636,184,Electronic,0.3333
637,184,Hip-Hop,0.533
638,184,Instrumental,0.03333
639,184,Pop,0.1
640,185,Electronic,0.3333
641,185,Hip-Hop,0.533
642,185,Instrumental,0.03333
643,185,Pop,0.1
644,186,Electronic,0.3333
645,186,Hip-Hop,0.5
646,186,Instrumental,0.03333
647,186,Pop,0.1333
648,187,Electronic,0.3
649,187,Hip-Hop,0.533
650,187,Instrumental,0.03333
651,187,Pop,0.1333
652,188,Electronic,0.3
653,188,Hip-Hop,0.567
654,188,Instrumental,0.03333
655,188,Pop,0.1
656,189,Electronic,0.2666
657,189,Hip-Hop,0.6
658,189,Instrumental,0.03333
659,189,Pop,0.1
660,190,Electronic,0.2666
661,190,Hip-Hop,0.567
662,190,Instrumental,0.03333
663,190,Pop,0.1333
664,191,Electronic,0.2333
665,191,Hip-Hop,0.6
666,191,Instrumental,0.03333
667,191,Pop,0.1333
668,192,Electronic,0.2666
669,192,Hip-Hop,0.567
670,192,Instrumental,0.03333
671,192,Pop,0.1333
672,193,Electronic,0.3
673,193,Hip-Hop,0.533
674,193,Instrumental,0.03333
675,193,Pop,0.1333
676,194,Electronic,0.3333
677,194,Hip-Hop,0.5
678,194,Instrumental,0.03333
679,194,Pop,0.1333
680,195,Electronic,0.3
681,195,Hip-Hop,0.533
682,195,Instrumental,0.03333
683,195,Pop,0.1333
684,196,Electronic,0.3333
685,196,Hip-Hop,0.5
686,196,Instrumental,0.03333
687,196,Pop,0.1333
688,197,Electronic,0.3333
689,197,Hip-Hop,0.5
690,197,Instrumental,0.03333
691,197,Pop,0.1333
692,198,Electronic,0.3667
693,198,Hip-Hop,0.4666
694,198,Instrumental,0.03333
695,198,Pop,0.1333
696,199,Electronic,0.3333
697,199,Hip-Hop,0.5
698,199,Instrumental,0.03333
699,199,Pop,0.1333
700,200,Electronic,0.3333
701,200,Hip-Hop,0.533
702,200,Instrumental,0.03333
703,200,Pop,0.1
704,201,Electronic,0.3667
705,201,Hip-Hop,0.5
706,201,Instrumental,0.03333
707,201,Pop,0.1
708,202,Electronic,0.4
709,202,Hip-Hop,0.4666
710,202,Instrumental,0.03333
711,202,Pop,0.1
712,203,Electronic,0.4333
713,203,Hip-Hop,0.4333
714,203,Instrumental,0.03333
715,203,Pop,0.1
716,204,Electronic,0.4333
717,204,Hip-Hop,0.4666
718,204,Pop,0.1
719,205,Electronic,0.4333
720,205,Hip-Hop,0.4666
721,205,Pop,0.1
722,206,Electronic,0.4
723,206,Hip-Hop,0.5
724,206,Pop,0.1
725,207,Electronic,0.4333
726,207,Hip-Hop,0.4666
727,207,Pop,0.1
728,208,Electronic,0.4333
729,208,Hip-Hop,0.4666
730,208,Pop,0.1
731,209,Electronic,0.4333
732,209,Hip-Hop,0.4333
733,209,Instrumental,0.03333
734,209,Pop,0.1
735,210,Electronic,0.4333
736,210,Hip-Hop,0.4333
737,210,Instrumental,0.03333
738,210,Pop,0.1
739,211,Electronic,0.4333
740,211,Hip-Hop,0.4666
741,211,Instrumental,0.03333
742,211,Pop,0.06665
743,212,Electronic,0.4
744,212,Hip-Hop,0.5
745,212,Instrumental,0.03333
746,212,Pop,0.06665
747,213,Electronic,0.4
748,213,Hip-Hop,0.4666
749,213,Instrumental,0.03333
750,213,International,0.03333
751,213,Pop,0.06665
752,214,Electronic,0.4
753,214,Hip-Hop,0.4333
754,214,Instrumental,0.03333
755,214,International,0.03333
756,214,Pop,0.1
757,215,Electronic,0.3667
758,215,Hip-Hop,0.4666
759,215,Instrumental,0.03333
760,215,International,0.03333
761,215,Pop,0.1
762,216,Electronic,0.3667
763,216,Hip-Hop,0.5
764,216,Instrumental,0.03333
765,216,International,0.03333
766,216,Pop,0.06665
767,217,Electronic,0.3667
768,217,Hip-Hop,0.4666
769,217,Instrumental,0.03333
770,217,International,0.03333
771,217,Pop,0.1
772,218,Electronic,0.3667
773,218,Hip-Hop,0.4666
774,218,Instrumental,0.03333
775,218,International,0.03333
776,218,Pop,0.1
777,219,Electronic,0.3667
778,219,Hip-Hop,0.4666
779,219,Instrumental,0.03333
780,219,International,0.03333
781,219,Pop,0.1
782,220,Electronic,0.3667
783,220,Hip-Hop,0.5
784,220,Instrumental,0.03333
785,220,International,0.03333
786,220,Pop,0.06665
787,221,Electronic,0.4
788,221,Hip-Hop,0.4666
789,221,Instrumental,0.03333
790,221,International,0.03333
791,221,Pop,0.06665
792,222,Electronic,0.3667
793,222,Hip-Hop,0.5
794,222,Instrumental,0.03333
795,222,International,0.03333
796,222,Pop,0.06665
797,223,Electronic,0.3333
798,223,Hip-Hop,0.533
799,223,Instrumental,0.03333
800,223,International,0.03333
801,223,Pop,0.06665
802,224,Electronic,0.3
803,224,Hip-Hop,0.567
804,224,Instrumental,0.03333
805,224,International,0.03333
806,224,Pop,0.06665
807,225,Electronic,0.3
808,225,Hip-Hop,0.567
809,225,Instrumental,0.03333
810,225,International,0.03333
811,225,Pop,0.06665
812,226,Electronic,0.2666
813,226,Hip-Hop,0.6
814,226,Instrumental,0.03333
815,226,International,0.03333
816,226,Pop,0.06665
817,227,Electronic,0.2666
818,227,Hip-Hop,0.6
819,227,Instrumental,0.03333
820,227,International,0.03333
821,227,Pop,0.06665
822,228,Electronic,0.2333
823,228,Hip-Hop,0.6333
824,228,Instrumental,0.03333
825,228,International,0.03333
826,228,Pop,0.06665
827,229,Electronic,0.2333
828,229,Hip-Hop,0.6333
829,229,Instrumental,0.03333
830,229,International,0.03333
831,229,Pop,0.06665
832,230,Electronic,0.2333
833,230,Hip-Hop,0.6333
834,230,Instrumental,0.03333
835,230,International,0.03333
836,230,Pop,0.06665
837,231,Electronic,0.2333
838,231,Hip-Hop,0.6333
839,231,Instrumental,0.03333
840,231,International,0.03333
841,231,Pop,0.06665
842,232,Electronic,0.2
843,232,Hip-Hop,0.6665
844,232,Instrumental,0.03333
845,232,International,0.03333
846,232,Pop,0.06665
847,233,Electronic,0.2
848,233,Hip-Hop,0.6665
849,233,Instrumental,0.03333
850,233,International,0.03333
851,233,Pop,0.06665
852,234,Electronic,0.2
853,234,Hip-Hop,0.6665
854,234,Instrumental,0.03333
855,234,International,0.03333
856,234,Pop,0.06665
857,235,Electronic,0.2
858,235,Hip-Hop,0.6665
859,235,Instrumental,0.03333
860,235,International,0.03333
861,235,Pop,0.06665
862,236,Electronic,0.2
863,236,Hip-Hop,0.6665
864,236,Instrumental,0.03333
865,236,International,0.03333
866,236,Pop,0.06665
867,237,Electronic,0.1666
868,237,Hip-Hop,0.6665
869,237,Instrumental,0.03333
870,237,International,0.03333
871,237,Pop,0.1
872,238,Electronic,0.1666
873,238,Hip-Hop,0.6665
874,238,Instrumental,0.03333
875,238,International,0.03333
876,238,Pop,0.1
877,239,Electronic,0.1666
878,239,Hip-Hop,0.7
879,239,International,0.03333
880,239,Pop,0.1
881,240,Electronic,0.1333
882,240,Hip-Hop,0.7334
883,240,International,0.03333
884,240,Pop,0.1
885,241,Electronic,0.1333
886,241,Hip-Hop,0.7334
887,241,International,0.03333
888,241,Pop,0.1
889,242,Electronic,0.1333
890,242,Hip-Hop,0.7
891,242,International,0.03333
892,242,Pop,0.1333
893,243,Electronic,0.1333
894,243,Hip-Hop,0.7334
895,243,Pop,0.1333
896,244,Electronic,0.1333
897,244,Hip-Hop,0.7666
898,244,Pop,0.1
899,245,Electronic,0.1666
900,245,Hip-Hop,0.7334
901,245,Pop,0.1
902,246,Electronic,0.1666
903,246,Hip-Hop,0.7334
904,246,Pop,0.1
905,247,Electronic,0.1666
906,247,Hip-Hop,0.7666
907,247,Pop,0.06665
908,248,Electronic,0.1666
909,248,Hip-Hop,0.7666
910,248,Pop,0.06665
911,249,Electronic,0.1666
912,249,Hip-Hop,0.7666
913,249,Pop,0.06665
914,250,Electronic,0.1666
915,250,Hip-Hop,0.7666
916,250,Pop,0.06665
917,251,Electronic,0.1333
918,251,Hip-Hop,0.8
919,251,Pop,0.06665
920,252,Electronic,0.1666
921,252,Hip-Hop,0.7666
922,252,Pop,0.06665
923,253,Electronic,0.1666
924,253,Hip-Hop,0.7666
925,253,Pop,0.06665
926,254,Electronic,0.1666
927,254,Hip-Hop,0.7666
928,254,Pop,0.06665
929,255,Electronic,0.1666
930,255,Hip-Hop,0.7666
931,255,Pop,0.06665
932,256,Electronic,0.1666
933,256,Hip-Hop,0.7666
934,256,Pop,0.06665
935,257,Electronic,0.1666
936,257,Hip-Hop,0.7666
937,257,Pop,0.06665
938,258,Electronic,0.2
939,258,Hip-Hop,0.7334
940,258,Pop,0.06665
941,259,Electronic,0.2
942,259,Hip-Hop,0.7334
943,259,Pop,0.06665
944,260,Electronic,0.2333
945,260,Hip-Hop,0.7
946,260,Pop,0.06665
947,261,Electronic,0.2333
948,261,Hip-Hop,0.7
949,261,Pop,0.06665
950,262,Electronic,0.2333
951,262,Hip-Hop,0.7
952,262,Pop,0.06665
953,263,Electronic,0.2
954,263,Hip-Hop,0.7
955,263,Pop,0.1
956,264,Electronic,0.2333
957,264,Hip-Hop,0.6665
958,264,Pop,0.1
959,265,Electronic,0.2333
960,265,Hip-Hop,0.6333
961,265,Pop,0.1
962,266,Electronic,0.2333
963,266,Hip-Hop,0.6
964,266,Pop,0.1
965,267,Electronic,0.2333
966,267,Hip-Hop,0.6
967,267,Pop,0.06665
968,268,Electronic,0.2
969,268,Hip-Hop,0.6
970,268,Pop,0.06665
971,269,Electronic,0.2
972,269,Hip-Hop,0.567
973,269,Pop,0.06665
974,270,Electronic,0.2
975,270,Hip-Hop,0.533
976,270,Pop,0.06665
977,271,Electronic,0.2
978,271,Hip-Hop,0.5
979,271,Pop,0.06665
980,272,Electronic,0.2
981,272,Hip-Hop,0.5
982,272,Pop,0.03333
983,273,Electronic,0.2
984,273,Hip-Hop,0.4666
985,273,Pop,0.03333
986,274,Electronic,0.2
987,274,Hip-Hop,0.4333
988,274,Pop,0.03333
989,275,Electronic,0.1666
990,275,Hip-Hop,0.4333
991,275,Pop,0.03333
992,276,Electronic,0.1666
993,276,Hip-Hop,0.4
994,276,Pop,0.03333
995,277,Electronic,0.1666
996,277,Hip-Hop,0.3667
997,277,Pop,0.03333
998,278,Electronic,0.1666
999,278,Hip-Hop,0.3333
1000,278,Pop,0.03333
1001,279,Electronic,0.1666
1002,279,Hip-Hop,0.3
1003,279,Pop,0.03333
1004,280,Electronic,0.1666
1005,280,Hip-Hop,0.2666
1006,280,Pop,0.03333
1007,281,Electronic,0.1666
1008,281,Hip-Hop,0.2333
1009,281,Pop,0.03333
1010,282,Electronic,0.1333
1011,282,Hip-Hop,0.2333
1012,282,Pop,0.03333
1013,283,Electronic,0.1333
1014,283,Hip-Hop,0.2
1015,283,Pop,0.03333
1016,284,Electronic,0.1333
1017,284,Hip-Hop,0.1666
1018,284,Pop,0.03333
1019,285,Electronic,0.1333
1020,285,Hip-Hop,0.1333
1021,285,Pop,0.03333
1022,286,Electronic,0.1333
1023,286,Hip-Hop,0.1
1024,286,Pop,0.03333
1025,287,Electronic,0.1333
1026,287,Hip-Hop,0.06665
1027,287,Pop,0.03333
1028,288,Electronic,0.1
1029,288,Hip-Hop,0.06665
1030,288,Pop,0.03333
1031,289,Electronic,0.1
1032,289,Hip-Hop,0.03333
1033,289,Pop,0.03333
1034,290,Electronic,0.06665
1035,290,Hip-Hop,0.03333
1036,290,Pop,0.03333
1037,291,Electronic,0.03333
1038,291,Hip-Hop,0.03333
1039,291,Pop,0.03333
1040,292,Electronic,0.03333
1041,292,Pop,0.03333
1042,293,Electronic,0.03333
