,time,genre,ratio
0,0,Electronic,0.6665
1,0,Experimental,0.03333
2,0,Hip-Hop,0.1
3,0,International,0.06665
4,0,Pop,0.1
5,0,Rock,0.03333
6,1,Electronic,0.7
7,1,Experimental,0.03333
8,1,Hip-Hop,0.1
9,1,International,0.06665
10,1,Pop,0.06665
11,1,Rock,0.03333
12,2,Electronic,0.7
13,2,Experimental,0.03333
14,2,Hip-Hop,0.1
15,2,International,0.06665
16,2,Pop,0.06665
17,2,Rock,0.03333
18,3,Electronic,0.7334
19,3,Experimental,0.03333
20,3,Hip-Hop,0.06665
21,3,International,0.06665
22,3,Pop,0.06665
23,3,Rock,0.03333
24,4,Electronic,0.7334
25,4,Experimental,0.03333
26,4,Hip-Hop,0.06665
27,4,International,0.06665
28,4,Pop,0.06665
29,4,Rock,0.03333
30,5,Electronic,0.7334
31,5,Experimental,0.03333
32,5,Hip-Hop,0.06665
33,5,International,0.1
34,5,Pop,0.03333
35,5,Rock,0.03333
36,6,Electronic,0.7334
37,6,Experimental,0.03333
38,6,Hip-Hop,0.06665
39,6,International,0.1
40,6,Pop,0.03333
41,6,Rock,0.03333
42,7,Electronic,0.7334
43,7,Experimental,0.03333
44,7,Hip-Hop,0.06665
45,7,International,0.1
46,7,Pop,0.03333
47,7,Rock,0.03333
48,8,Electronic,0.7334
49,8,Experimental,0.03333
50,8,Hip-Hop,0.06665
51,8,International,0.1
52,8,Pop,0.03333
53,8,Rock,0.03333
54,9,Electronic,0.7334
55,9,Experimental,0.03333
56,9,Hip-Hop,0.06665
57,9,International,0.1
58,9,Pop,0.03333
59,9,Rock,0.03333
60,10,Electronic,0.7666
61,10,Experimental,0.03333
62,10,Hip-Hop,0.06665
63,10,International,0.06665
64,10,Pop,0.03333
65,10,Rock,0.03333
66,11,Electronic,0.7334
67,11,Experimental,0.06665
68,11,Hip-Hop,0.06665
69,11,International,0.06665
70,11,Pop,0.03333
71,11,Rock,0.03333
72,12,Electronic,0.7666
73,12,Experimental,0.06665
74,12,Hip-Hop,0.06665
75,12,International,0.06665
76,12,Pop,0.03333
77,13,Electronic,0.7334
78,13,Experimental,0.1
79,13,Hip-Hop,0.06665
80,13,International,0.06665
81,13,Pop,0.03333
82,14,Electronic,0.7334
83,14,Experimental,0.1
84,14,Hip-Hop,0.06665
85,14,International,0.06665
86,14,Pop,0.03333
87,15,Electronic,0.7
88,15,Experimental,0.1
89,15,Hip-Hop,0.06665
90,15,International,0.06665
91,15,Pop,0.06665
92,16,Electronic,0.7
93,16,Experimental,0.1
94,16,Hip-Hop,0.06665
95,16,International,0.06665
96,16,Pop,0.06665
97,17,Electronic,0.6665
98,17,Experimental,0.1
99,17,Hip-Hop,0.06665
100,17,International,0.1
101,17,Pop,0.06665
102,18,Electronic,0.7
103,18,Experimental,0.06665
104,18,Hip-Hop,0.06665
105,18,International,0.1
106,18,Pop,0.06665
107,19,Electronic,0.7
108,19,Experimental,0.06665
109,19,Hip-Hop,0.06665
110,19,International,0.1
111,19,Pop,0.06665
112,20,Electronic,0.7
113,20,Experimental,0.06665
114,20,Hip-Hop,0.06665
115,20,International,0.1
116,20,Pop,0.06665
117,21,Electronic,0.6665
118,21,Experimental,0.1
119,21,Hip-Hop,0.06665
120,21,International,0.1
121,21,Pop,0.06665
122,22,Electronic,0.6665
123,22,Experimental,0.1
124,22,Hip-Hop,0.06665
125,22,International,0.1
126,22,Pop,0.06665
127,23,Electronic,0.6665
128,23,Experimental,0.1
129,23,Hip-Hop,0.06665
130,23,International,0.1
131,23,Pop,0.06665
132,24,Electronic,0.6333
133,24,Experimental,0.1
134,24,Hip-Hop,0.06665
135,24,International,0.1333
136,24,Pop,0.06665
137,25,Electronic,0.6665
138,25,Experimental,0.1
139,25,Hip-Hop,0.06665
140,25,International,0.1
141,25,Pop,0.06665
142,26,Electronic,0.7
143,26,Experimental,0.1
144,26,Hip-Hop,0.06665
145,26,International,0.1
146,26,Pop,0.03333
147,27,Electronic,0.7
148,27,Experimental,0.1
149,27,Hip-Hop,0.06665
150,27,International,0.1
151,27,Pop,0.03333
152,28,Electronic,0.7334
153,28,Experimental,0.1
154,28,Hip-Hop,0.03333
155,28,International,0.1
156,28,Pop,0.03333
157,29,Electronic,0.7334
158,29,Experimental,0.1
159,29,Hip-Hop,0.03333
160,29,International,0.1
161,29,Pop,0.03333
162,30,Electronic,0.7334
163,30,Experimental,0.1
164,30,Hip-Hop,0.03333
165,30,International,0.1
166,30,Pop,0.03333
167,31,Electronic,0.7334
168,31,Experimental,0.1
169,31,Hip-Hop,0.03333
170,31,International,0.1
171,31,Pop,0.03333
172,32,Electronic,0.7
173,32,Experimental,0.1333
174,32,Hip-Hop,0.03333
175,32,International,0.1
176,32,Pop,0.03333
177,33,Electronic,0.6665
178,33,Experimental,0.1333
179,33,Hip-Hop,0.03333
180,33,International,0.1333
181,33,Pop,0.03333
182,34,Electronic,0.6665
183,34,Experimental,0.1333
184,34,Hip-Hop,0.03333
185,34,International,0.1333
186,34,Pop,0.03333
187,35,Electronic,0.7
188,35,Experimental,0.1333
189,35,Hip-Hop,0.03333
190,35,International,0.1
191,35,Pop,0.03333
192,36,Electronic,0.6665
193,36,Experimental,0.1333
194,36,Hip-Hop,0.03333
195,36,International,0.1
196,36,Pop,0.06665
197,37,Electronic,0.6665
198,37,Experimental,0.1333
199,37,Hip-Hop,0.03333
200,37,International,0.1
201,37,Pop,0.06665
202,38,Electronic,0.6665
203,38,Experimental,0.1333
204,38,Hip-Hop,0.03333
205,38,International,0.1
206,38,Pop,0.06665
207,39,Electronic,0.6333
208,39,Experimental,0.1333
209,39,Hip-Hop,0.03333
210,39,International,0.1
211,39,Pop,0.1
212,40,Electronic,0.6
213,40,Experimental,0.1333
214,40,Hip-Hop,0.03333
215,40,International,0.1333
216,40,Pop,0.1
217,41,Electronic,0.6333
218,41,Experimental,0.1
219,41,Hip-Hop,0.03333
220,41,International,0.1333
221,41,Pop,0.1
222,42,Electronic,0.6333
223,42,Experimental,0.1
224,42,Hip-Hop,0.03333
225,42,International,0.1333
226,42,Pop,0.1
227,43,Electronic,0.6665
228,43,Experimental,0.06665
229,43,Hip-Hop,0.03333
230,43,International,0.1333
231,43,Pop,0.1
232,44,Electronic,0.6333
233,44,Experimental,0.1
234,44,Hip-Hop,0.03333
235,44,International,0.1333
236,44,Pop,0.1
237,45,Electronic,0.6665
238,45,Experimental,0.1
239,45,Hip-Hop,0.03333
240,45,International,0.1333
241,45,Pop,0.06665
242,46,Electronic,0.6665
243,46,Experimental,0.1
244,46,Hip-Hop,0.03333
245,46,International,0.1333
246,46,Pop,0.06665
247,47,Electronic,0.6665
248,47,Experimental,0.1
249,47,Hip-Hop,0.03333
250,47,International,0.1
251,47,Pop,0.1
252,48,Electronic,0.6665
253,48,Experimental,0.1
254,48,Hip-Hop,0.03333
255,48,International,0.1
256,48,Pop,0.1
257,49,Electronic,0.7
258,49,Experimental,0.1
259,49,International,0.1
260,49,Pop,0.1
261,50,Electronic,0.7
262,50,Experimental,0.1
263,50,International,0.1
264,50,Pop,0.1
265,51,Electronic,0.7334
266,51,Experimental,0.06665
267,51,International,0.1
268,51,Pop,0.1
269,52,Electronic,0.7334
270,52,Experimental,0.06665
271,52,International,0.1
272,52,Pop,0.1
273,53,Electronic,0.7334
274,53,Experimental,0.06665
275,53,International,0.1
276,53,Pop,0.1
277,54,Electronic,0.7334
278,54,Experimental,0.06665
279,54,International,0.1
280,54,Pop,0.1
281,55,Electronic,0.7334
282,55,Experimental,0.06665
283,55,International,0.1
284,55,Pop,0.1
285,56,Electronic,0.7
286,56,Experimental,0.06665
287,56,Hip-Hop,0.03333
288,56,International,0.1
289,56,Pop,0.1
290,57,Electronic,0.6665
291,57,Experimental,0.06665
292,57,Hip-Hop,0.03333
293,57,International,0.1
294,57,Pop,0.1333
295,58,Electronic,0.6665
296,58,Experimental,0.06665
297,58,Hip-Hop,0.03333
298,58,International,0.1
299,58,Pop,0.1333
300,59,Electronic,0.6665
301,59,Experimental,0.06665
302,59,Hip-Hop,0.03333
303,59,International,0.1
304,59,Pop,0.1333
305,60,Electronic,0.6333
306,60,Experimental,0.1
307,60,Hip-Hop,0.03333
308,60,International,0.1
309,60,Pop,0.1333
310,61,Electronic,0.6
311,61,Experimental,0.1
312,61,Hip-Hop,0.03333
313,61,International,0.1
314,61,Pop,0.1333
315,61,Rock,0.03333
316,62,Electronic,0.6333
317,62,Experimental,0.06665
318,62,Hip-Hop,0.03333
319,62,International,0.1
320,62,Pop,0.1333
321,62,Rock,0.03333
322,63,Electronic,0.6665
323,63,Experimental,0.06665
324,63,Hip-Hop,0.03333
325,63,International,0.06665
326,63,Pop,0.1333
327,63,Rock,0.03333
328,64,Electronic,0.6665
329,64,Experimental,0.06665
330,64,Hip-Hop,0.03333
331,64,International,0.06665
332,64,Pop,0.1333
333,64,Rock,0.03333
334,65,Electronic,0.6665
335,65,Experimental,0.06665
336,65,Hip-Hop,0.03333
337,65,International,0.06665
338,65,Pop,0.1333
339,65,Rock,0.03333
340,66,Electronic,0.7
341,66,Experimental,0.06665
342,66,Hip-Hop,0.03333
343,66,International,0.06665
344,66,Pop,0.1
345,66,Rock,0.03333
346,67,Electronic,0.6665
347,67,Experimental,0.06665
348,67,Hip-Hop,0.03333
349,67,International,0.06665
350,67,Pop,0.1
351,67,Rock,0.06665
352,68,Electronic,0.6665
353,68,Experimental,0.06665
354,68,Hip-Hop,0.03333
355,68,International,0.06665
356,68,Pop,0.1
357,68,Rock,0.06665
358,69,Electronic,0.7
359,69,Experimental,0.06665
360,69,Hip-Hop,0.03333
361,69,International,0.06665
362,69,Pop,0.06665
363,69,Rock,0.06665
364,70,Electronic,0.7334
365,70,Experimental,0.06665
366,70,Hip-Hop,0.03333
367,70,International,0.03333
368,70,Pop,0.06665
369,70,Rock,0.06665
370,71,Electronic,0.7
371,71,Experimental,0.06665
372,71,Hip-Hop,0.06665
373,71,International,0.03333
374,71,Pop,0.06665
375,71,Rock,0.06665
376,72,Electronic,0.7
377,72,Experimental,0.06665
378,72,Hip-Hop,0.06665
379,72,International,0.03333
380,72,Pop,0.06665
381,72,Rock,0.06665
382,73,Electronic,0.6665
383,73,Experimental,0.06665
384,73,Hip-Hop,0.06665
385,73,International,0.03333
386,73,Pop,0.06665
387,73,Rock,0.1
388,74,Electronic,0.6665
389,74,Experimental,0.03333
390,74,Hip-Hop,0.06665
391,74,International,0.06665
392,74,Pop,0.06665
393,74,Rock,0.1
394,75,Electronic,0.6665
395,75,Experimental,0.03333
396,75,Hip-Hop,0.06665
397,75,International,0.06665
398,75,Pop,0.06665
399,75,Rock,0.1
400,76,Electronic,0.6665
401,76,Experimental,0.03333
402,76,Hip-Hop,0.06665
403,76,International,0.06665
404,76,Pop,0.06665
405,76,Rock,0.1
406,77,Electronic,0.6665
407,77,Experimental,0.03333
408,77,Hip-Hop,0.06665
409,77,International,0.06665
410,77,Pop,0.06665
411,77,Rock,0.1
412,78,Electronic,0.6665
413,78,Experimental,0.03333
414,78,Hip-Hop,0.06665
415,78,International,0.06665
416,78,Pop,0.06665
417,78,Rock,0.1
418,79,Electronic,0.6665
419,79,Experimental,0.03333
420,79,Hip-Hop,0.06665
421,79,International,0.06665
422,79,Pop,0.06665
423,79,Rock,0.1
424,80,Electronic,0.6665
425,80,Experimental,0.03333
426,80,Hip-Hop,0.06665
427,80,International,0.06665
428,80,Pop,0.06665
429,80,Rock,0.1
430,81,Electronic,0.6665
431,81,Experimental,0.03333
432,81,Hip-Hop,0.06665
433,81,International,0.06665
434,81,Pop,0.06665
435,81,Rock,0.1
436,82,Electronic,0.6333
437,82,Experimental,0.06665
438,82,Hip-Hop,0.06665
439,82,International,0.06665
440,82,Pop,0.06665
441,82,Rock,0.1
442,83,Electronic,0.6333
443,83,Experimental,0.06665
444,83,Hip-Hop,0.06665
445,83,International,0.06665
446,83,Pop,0.06665
447,83,Rock,0.1
448,84,Electronic,0.6333
449,84,Experimental,0.1
450,84,Hip-Hop,0.06665
451,84,International,0.03333
452,84,Pop,0.06665
453,84,Rock,0.1
454,85,Electronic,0.6
455,85,Experimental,0.1
456,85,Hip-Hop,0.06665
457,85,International,0.03333
458,85,Pop,0.06665
459,85,Rock,0.1333
460,86,Electronic,0.6333
461,86,Experimental,0.1
462,86,Hip-Hop,0.03333
463,86,International,0.03333
464,86,Pop,0.06665
465,86,Rock,0.1333
466,87,Electronic,0.6333
467,87,Experimental,0.1
468,87,Hip-Hop,0.03333
469,87,International,0.03333
470,87,Pop,0.06665
471,87,Rock,0.1333
472,88,Electronic,0.6333
473,88,Experimental,0.1
474,88,Hip-Hop,0.03333
475,88,International,0.03333
476,88,Pop,0.06665
477,88,Rock,0.1333
478,89,Electronic,0.6333
479,89,Experimental,0.1
480,89,Hip-Hop,0.03333
481,89,International,0.03333
482,89,Pop,0.06665
483,89,Rock,0.1333
484,90,Electronic,0.6333
485,90,Experimental,0.06665
486,90,Hip-Hop,0.03333
487,90,International,0.06665
488,90,Pop,0.06665
489,90,Rock,0.1333
490,91,Electronic,0.6333
491,91,Experimental,0.06665
492,91,Hip-Hop,0.03333
493,91,International,0.1
494,91,Pop,0.06665
495,91,Rock,0.1
496,92,Electronic,0.6333
497,92,Experimental,0.06665
498,92,Hip-Hop,0.03333
499,92,International,0.1
500,92,Pop,0.06665
501,92,Rock,0.1
502,93,Electronic,0.6333
503,93,Experimental,0.06665
504,93,Hip-Hop,0.03333
505,93,International,0.1
506,93,Pop,0.06665
507,93,Rock,0.1
508,94,Electronic,0.6333
509,94,Experimental,0.06665
510,94,Hip-Hop,0.03333
511,94,International,0.1
512,94,Pop,0.06665
513,94,Rock,0.1
514,95,Electronic,0.6333
515,95,Experimental,0.06665
516,95,Hip-Hop,0.03333
517,95,International,0.1
518,95,Pop,0.06665
519,95,Rock,0.1
520,96,Electronic,0.6333
521,96,Experimental,0.06665
522,96,Hip-Hop,0.03333
523,96,International,0.1
524,96,Pop,0.06665
525,96,Rock,0.1
526,97,Electronic,0.6333
527,97,Experimental,0.1
528,97,Hip-Hop,0.03333
529,97,International,0.1
530,97,Pop,0.06665
531,97,Rock,0.06665
532,98,Electronic,0.6333
533,98,Experimental,0.1
534,98,Hip-Hop,0.03333
535,98,International,0.1
536,98,Pop,0.06665
537,98,Rock,0.06665
538,99,Electronic,0.6
539,99,Experimental,0.1
540,99,Hip-Hop,0.03333
541,99,Instrumental,0.03333
542,99,International,0.1
543,99,Pop,0.06665
544,99,Rock,0.06665
545,100,Electronic,0.6
546,100,Experimental,0.1
547,100,Hip-Hop,0.03333
548,100,Instrumental,0.03333
549,100,International,0.1
550,100,Pop,0.06665
551,100,Rock,0.06665
552,101,Electronic,0.6
553,101,Experimental,0.1
554,101,Instrumental,0.03333
555,101,International,0.1333
556,101,Pop,0.06665
557,101,Rock,0.06665
558,102,Electronic,0.6
559,102,Experimental,0.1
560,102,Instrumental,0.03333
561,102,International,0.1333
562,102,Pop,0.06665
563,102,Rock,0.06665
564,103,Electronic,0.6333
565,103,Experimental,0.1
566,103,Instrumental,0.03333
567,103,International,0.1333
568,103,Pop,0.06665
569,103,Rock,0.03333
570,104,Electronic,0.6665
571,104,Experimental,0.1
572,104,Instrumental,0.03333
573,104,International,0.1
574,104,Pop,0.06665
575,104,Rock,0.03333
576,105,Electronic,0.6665
577,105,Experimental,0.1
578,105,Instrumental,0.03333
579,105,International,0.1
580,105,Pop,0.06665
581,105,Rock,0.03333
582,106,Electronic,0.6665
583,106,Experimental,0.1
584,106,Instrumental,0.03333
585,106,International,0.1
586,106,Pop,0.06665
587,106,Rock,0.03333
588,107,Electronic,0.6665
589,107,Experimental,0.1
590,107,Hip-Hop,0.03333
591,107,Instrumental,0.03333
592,107,International,0.1
593,107,Pop,0.03333
594,107,Rock,0.03333
595,108,Electronic,0.6665
596,108,Experimental,0.1
597,108,Hip-Hop,0.03333
598,108,Instrumental,0.03333
599,108,International,0.1
600,108,Pop,0.03333
601,108,Rock,0.03333
602,109,Electronic,0.6665
603,109,Experimental,0.1
604,109,Hip-Hop,0.03333
605,109,Instrumental,0.03333
606,109,International,0.1
607,109,Pop,0.03333
608,109,Rock,0.03333
609,110,Electronic,0.6333
610,110,Experimental,0.1
611,110,Hip-Hop,0.03333
612,110,Instrumental,0.03333
613,110,International,0.1
614,110,Pop,0.06665
615,110,Rock,0.03333
616,111,Electronic,0.6
617,111,Experimental,0.1
618,111,Hip-Hop,0.06665
619,111,Instrumental,0.03333
620,111,International,0.1
621,111,Pop,0.06665
622,111,Rock,0.03333
623,112,Electronic,0.6
624,112,Experimental,0.06665
625,112,Hip-Hop,0.06665
626,112,Instrumental,0.03333
627,112,International,0.1
628,112,Pop,0.06665
629,112,Rock,0.06665
630,113,Electronic,0.567
631,113,Experimental,0.1
632,113,Hip-Hop,0.06665
633,113,Instrumental,0.03333
634,113,International,0.1
635,113,Pop,0.06665
636,113,Rock,0.06665
637,114,Electronic,0.6
638,114,Experimental,0.06665
639,114,Hip-Hop,0.06665
640,114,Instrumental,0.03333
641,114,International,0.1
642,114,Pop,0.06665
643,114,Rock,0.06665
644,115,Electronic,0.6
645,115,Experimental,0.06665
646,115,Hip-Hop,0.06665
647,115,Instrumental,0.03333
648,115,International,0.1333
649,115,Pop,0.06665
650,115,Rock,0.03333
651,116,Electronic,0.6
652,116,Experimental,0.06665
653,116,Hip-Hop,0.06665
654,116,Instrumental,0.03333
655,116,International,0.1333
656,116,Pop,0.06665
657,116,Rock,0.03333
658,117,Electronic,0.6333
659,117,Experimental,0.06665
660,117,Hip-Hop,0.06665
661,117,Instrumental,0.03333
662,117,International,0.1333
663,117,Pop,0.03333
664,117,Rock,0.03333
665,118,Electronic,0.6
666,118,Experimental,0.06665
667,118,Hip-Hop,0.06665
668,118,Instrumental,0.03333
669,118,International,0.1666
670,118,Pop,0.03333
671,118,Rock,0.03333
672,119,Electronic,0.567
673,119,Experimental,0.06665
674,119,Hip-Hop,0.06665
675,119,Instrumental,0.03333
676,119,International,0.1666
677,119,Pop,0.06665
678,119,Rock,0.03333
679,120,Electronic,0.6
680,120,Experimental,0.06665
681,120,Hip-Hop,0.06665
682,120,Instrumental,0.03333
683,120,International,0.1333
684,120,Pop,0.06665
685,120,Rock,0.03333
686,121,Electronic,0.6333
687,121,Experimental,0.06665
688,121,Hip-Hop,0.06665
689,121,Instrumental,0.03333
690,121,International,0.1
691,121,Pop,0.06665
692,121,Rock,0.03333
693,122,Electronic,0.6333
694,122,Experimental,0.06665
695,122,Hip-Hop,0.06665
696,122,Instrumental,0.03333
697,122,International,0.1
698,122,Pop,0.06665
699,122,Rock,0.03333
700,123,Electronic,0.6333
701,123,Experimental,0.06665
702,123,Hip-Hop,0.06665
703,123,Instrumental,0.03333
704,123,International,0.1
705,123,Pop,0.06665
706,123,Rock,0.03333
707,124,Electronic,0.6333
708,124,Experimental,0.06665
709,124,Hip-Hop,0.06665
710,124,Instrumental,0.03333
711,124,International,0.1
712,124,Pop,0.06665
713,124,Rock,0.03333
714,125,Electronic,0.6333
715,125,Experimental,0.06665
716,125,Hip-Hop,0.06665
717,125,Instrumental,0.03333
718,125,International,0.1
719,125,Pop,0.06665
720,125,Rock,0.03333
721,126,Electronic,0.6333
722,126,Experimental,0.06665
723,126,Hip-Hop,0.06665
724,126,Instrumental,0.03333
725,126,International,0.1
726,126,Pop,0.06665
727,126,Rock,0.03333
728,127,Electronic,0.6665
729,127,Experimental,0.03333
730,127,Hip-Hop,0.06665
731,127,Instrumental,0.03333
732,127,International,0.1
733,127,Pop,0.06665
734,127,Rock,0.03333
735,128,Electronic,0.6333
736,128,Experimental,0.03333
737,128,Hip-Hop,0.06665
738,128,Instrumental,0.03333
739,128,International,0.1
740,128,Pop,0.06665
741,128,Rock,0.06665
742,129,Electronic,0.6665
743,129,Experimental,0.03333
744,129,Hip-Hop,0.06665
745,129,International,0.1
746,129,Pop,0.06665
747,129,Rock,0.06665
748,130,Electronic,0.6665
749,130,Experimental,0.03333
750,130,Hip-Hop,0.06665
751,130,International,0.1
752,130,Pop,0.06665
753,130,Rock,0.06665
754,131,Electronic,0.7
755,131,Experimental,0.03333
756,131,Hip-Hop,0.06665
757,131,International,0.06665
758,131,Pop,0.06665
759,131,Rock,0.06665
760,132,Electronic,0.7
761,132,Experimental,0.03333
762,132,Hip-Hop,0.06665
763,132,International,0.06665
764,132,Pop,0.06665
765,132,Rock,0.06665
766,133,Electronic,0.7
767,133,Experimental,0.03333
768,133,Hip-Hop,0.06665
769,133,International,0.06665
770,133,Pop,0.06665
771,133,Rock,0.06665
772,134,Electronic,0.7
773,134,Experimental,0.03333
774,134,Hip-Hop,0.06665
775,134,International,0.06665
776,134,Pop,0.06665
777,134,Rock,0.06665
778,135,Electronic,0.7
779,135,Experimental,0.03333
780,135,Hip-Hop,0.06665
781,135,International,0.06665
782,135,Pop,0.06665
783,135,Rock,0.06665
784,136,Electronic,0.6665
785,136,Experimental,0.03333
786,136,Hip-Hop,0.06665
787,136,International,0.1
788,136,Pop,0.06665
789,136,Rock,0.06665
790,137,Electronic,0.7
791,137,Experimental,0.03333
792,137,Hip-Hop,0.03333
793,137,International,0.1
794,137,Pop,0.06665
795,137,Rock,0.06665
796,138,Electronic,0.6665
797,138,Experimental,0.03333
798,138,Hip-Hop,0.03333
799,138,International,0.1
800,138,Pop,0.06665
801,138,Rock,0.1
802,139,Electronic,0.6665
803,139,Experimental,0.03333
804,139,Hip-Hop,0.03333
805,139,International,0.1
806,139,Pop,0.06665
807,139,Rock,0.1
808,140,Electronic,0.7
809,140,Experimental,0.03333
810,140,Hip-Hop,0.03333
811,140,International,0.1
812,140,Pop,0.03333
813,140,Rock,0.1
814,141,Electronic,0.7334
815,141,Experimental,0.03333
816,141,International,0.1
817,141,Pop,0.03333
818,141,Rock,0.1
819,142,Electronic,0.7666
820,142,Experimental,0.03333
821,142,International,0.1
822,142,Pop,0.03333
823,142,Rock,0.06665
824,143,Electronic,0.8
825,143,International,0.1
826,143,Pop,0.03333
827,143,Rock,0.06665
828,144,Electronic,0.8
829,144,International,0.1
830,144,Pop,0.03333
831,144,Rock,0.06665
832,145,Electronic,0.8335
833,145,International,0.06665
834,145,Pop,0.03333
835,145,Rock,0.06665
836,146,Electronic,0.8335
837,146,International,0.06665
838,146,Pop,0.03333
839,146,Rock,0.06665
840,147,Electronic,0.8335
841,147,International,0.06665
842,147,Pop,0.03333
843,147,Rock,0.06665
844,148,Electronic,0.8667
845,148,International,0.03333
846,148,Pop,0.03333
847,148,Rock,0.06665
848,149,Electronic,0.9
849,149,International,0.03333
850,149,Rock,0.06665
851,150,Electronic,0.8667
852,150,International,0.03333
853,150,Pop,0.03333
854,150,Rock,0.06665
855,151,Electronic,0.8667
856,151,International,0.03333
857,151,Pop,0.03333
858,151,Rock,0.06665
859,152,Electronic,0.8667
860,152,International,0.03333
861,152,Pop,0.03333
862,152,Rock,0.06665
863,153,Electronic,0.8335
864,153,International,0.06665
865,153,Pop,0.03333
866,153,Rock,0.06665
867,154,Electronic,0.8
868,154,International,0.1
869,154,Pop,0.03333
870,154,Rock,0.06665
871,155,Electronic,0.7666
872,155,International,0.1
873,155,Pop,0.06665
874,155,Rock,0.06665
875,156,Electronic,0.7334
876,156,International,0.1
877,156,Pop,0.1
878,156,Rock,0.06665
879,157,Electronic,0.7334
880,157,International,0.1
881,157,Pop,0.1
882,157,Rock,0.06665
883,158,Electronic,0.7666
884,158,International,0.1
885,158,Pop,0.1
886,158,Rock,0.03333
887,159,Electronic,0.7666
888,159,International,0.1
889,159,Pop,0.1
890,159,Rock,0.03333
891,160,Electronic,0.7334
892,160,International,0.1333
893,160,Pop,0.1
894,160,Rock,0.03333
895,161,Electronic,0.7334
896,161,International,0.1333
897,161,Pop,0.1
898,161,Rock,0.03333
899,162,Electronic,0.7334
900,162,International,0.1333
901,162,Pop,0.1
902,162,Rock,0.03333
903,163,Electronic,0.7
904,163,International,0.1666
905,163,Pop,0.1
906,163,Rock,0.03333
907,164,Electronic,0.7
908,164,International,0.1666
909,164,Pop,0.1
910,164,Rock,0.03333
911,165,Electronic,0.7
912,165,International,0.1666
913,165,Pop,0.1
914,165,Rock,0.03333
915,166,Electronic,0.7
916,166,Hip-Hop,0.03333
917,166,International,0.1333
918,166,Pop,0.1
919,166,Rock,0.03333
920,167,Electronic,0.7
921,167,Hip-Hop,0.03333
922,167,International,0.1333
923,167,Pop,0.1
924,167,Rock,0.03333
925,168,Electronic,0.7
926,168,Hip-Hop,0.06665
927,168,International,0.1333
928,168,Pop,0.1
929,169,Electronic,0.7
930,169,Hip-Hop,0.06665
931,169,International,0.1333
932,169,Pop,0.1
933,170,Electronic,0.7
934,170,Hip-Hop,0.06665
935,170,International,0.1333
936,170,Pop,0.1
937,171,Electronic,0.7
938,171,Hip-Hop,0.06665
939,171,International,0.1333
940,171,Pop,0.1
941,172,Electronic,0.7
942,172,Hip-Hop,0.06665
943,172,International,0.1333
944,172,Pop,0.1
945,173,Electronic,0.7
946,173,Hip-Hop,0.06665
947,173,International,0.1333
948,173,Pop,0.1
949,174,Electronic,0.7
950,174,Hip-Hop,0.06665
951,174,International,0.1333
952,174,Pop,0.1
953,175,Electronic,0.7
954,175,Hip-Hop,0.06665
955,175,International,0.1333
956,175,Pop,0.1
957,176,Electronic,0.7
958,176,Hip-Hop,0.06665
959,176,International,0.1333
960,176,Pop,0.1
961,177,Electronic,0.7
962,177,Hip-Hop,0.06665
963,177,International,0.1333
964,177,Pop,0.1
965,178,Electronic,0.7
966,178,Hip-Hop,0.06665
967,178,International,0.1333
968,178,Pop,0.1
969,179,Electronic,0.6665
970,179,Hip-Hop,0.1
971,179,International,0.1333
972,179,Pop,0.1
973,180,Electronic,0.6665
974,180,Hip-Hop,0.1
975,180,International,0.1666
976,180,Pop,0.06665
977,181,Electronic,0.6665
978,181,Hip-Hop,0.1
979,181,International,0.1666
980,181,Pop,0.06665
981,182,Electronic,0.6333
982,182,Hip-Hop,0.1
983,182,International,0.1666
984,182,Pop,0.06665
985,182,Rock,0.03333
986,183,Electronic,0.6333
987,183,Hip-Hop,0.1
988,183,International,0.1333
989,183,Pop,0.06665
990,183,Rock,0.06665
991,184,Electronic,0.6665
992,184,Hip-Hop,0.1
993,184,International,0.1
994,184,Pop,0.06665
995,184,Rock,0.06665
996,185,Electronic,0.7
997,185,Hip-Hop,0.1
998,185,International,0.1
999,185,Pop,0.03333
1000,185,Rock,0.06665
1001,186,Electronic,0.7334
1002,186,Hip-Hop,0.1
1003,186,International,0.1
1004,186,Rock,0.06665
1005,187,Electronic,0.7334
1006,187,Hip-Hop,0.1
1007,187,International,0.1
1008,187,Rock,0.06665
1009,188,Electronic,0.7334
1010,188,Hip-Hop,0.1
1011,188,International,0.1
1012,188,Rock,0.06665
1013,189,Electronic,0.7334
1014,189,Hip-Hop,0.1
1015,189,International,0.1
1016,189,Rock,0.06665
1017,190,Electronic,0.7666
1018,190,Hip-Hop,0.1
1019,190,International,0.06665
1020,190,Rock,0.06665
1021,191,Electronic,0.7334
1022,191,Hip-Hop,0.1
1023,191,International,0.1
1024,191,Rock,0.06665
1025,192,Electronic,0.7
1026,192,Hip-Hop,0.1
1027,192,International,0.1333
1028,192,Rock,0.06665
1029,193,Electronic,0.7334
1030,193,Hip-Hop,0.1
1031,193,International,0.1
1032,193,Rock,0.06665
1033,194,Electronic,0.7
1034,194,Hip-Hop,0.1
1035,194,International,0.1
1036,194,Pop,0.03333
1037,194,Rock,0.06665
1038,195,Electronic,0.7
1039,195,Hip-Hop,0.1
1040,195,International,0.1
1041,195,Pop,0.03333
1042,195,Rock,0.06665
1043,196,Electronic,0.7334
1044,196,Hip-Hop,0.06665
1045,196,International,0.1
1046,196,Pop,0.03333
1047,196,Rock,0.06665
1048,197,Electronic,0.7
1049,197,Hip-Hop,0.06665
1050,197,International,0.1
1051,197,Pop,0.03333
1052,197,Rock,0.1
1053,198,Electronic,0.7
1054,198,Experimental,0.03333
1055,198,Hip-Hop,0.03333
1056,198,International,0.1
1057,198,Pop,0.03333
1058,198,Rock,0.1
1059,199,Electronic,0.6665
1060,199,Experimental,0.03333
1061,199,Hip-Hop,0.03333
1062,199,International,0.1333
1063,199,Pop,0.03333
1064,199,Rock,0.1
1065,200,Electronic,0.6333
1066,200,Experimental,0.03333
1067,200,Hip-Hop,0.06665
1068,200,International,0.1333
1069,200,Pop,0.03333
1070,200,Rock,0.1
1071,201,Electronic,0.6
1072,201,Experimental,0.03333
1073,201,Hip-Hop,0.06665
1074,201,International,0.1666
1075,201,Pop,0.03333
1076,201,Rock,0.1
1077,202,Electronic,0.567
1078,202,Experimental,0.03333
1079,202,Hip-Hop,0.1
1080,202,International,0.1666
1081,202,Pop,0.03333
1082,202,Rock,0.1
1083,203,Electronic,0.567
1084,203,Experimental,0.03333
1085,203,Hip-Hop,0.1
1086,203,International,0.1666
1087,203,Pop,0.03333
1088,203,Rock,0.1
1089,204,Electronic,0.567
1090,204,Experimental,0.03333
1091,204,Hip-Hop,0.1
1092,204,International,0.1666
1093,204,Pop,0.03333
1094,204,Rock,0.1
1095,205,Electronic,0.567
1096,205,Experimental,0.03333
1097,205,Hip-Hop,0.1
1098,205,International,0.1666
1099,205,Pop,0.03333
1100,205,Rock,0.1
1101,206,Electronic,0.533
1102,206,Experimental,0.03333
1103,206,Hip-Hop,0.1333
1104,206,International,0.1666
1105,206,Pop,0.03333
1106,206,Rock,0.1
1107,207,Electronic,0.533
1108,207,Experimental,0.03333
1109,207,Hip-Hop,0.1333
1110,207,International,0.1666
1111,207,Pop,0.03333
1112,207,Rock,0.1
1113,208,Electronic,0.533
1114,208,Experimental,0.03333
1115,208,Hip-Hop,0.1333
1116,208,International,0.1666
1117,208,Pop,0.03333
1118,208,Rock,0.1
1119,209,Electronic,0.533
1120,209,Experimental,0.03333
1121,209,Hip-Hop,0.1333
1122,209,International,0.1666
1123,209,Pop,0.03333
1124,209,Rock,0.1
1125,210,Electronic,0.567
1126,210,Experimental,0.03333
1127,210,Hip-Hop,0.1333
1128,210,International,0.1333
1129,210,Pop,0.03333
1130,210,Rock,0.1
1131,211,Electronic,0.567
1132,211,Experimental,0.03333
1133,211,Hip-Hop,0.1333
1134,211,International,0.1333
1135,211,Pop,0.03333
1136,211,Rock,0.1
1137,212,Electronic,0.6
1138,212,Experimental,0.03333
1139,212,Hip-Hop,0.1333
1140,212,International,0.1333
1141,212,Pop,0.03333
1142,212,Rock,0.06665
1143,213,Electronic,0.6333
1144,213,Experimental,0.03333
1145,213,Hip-Hop,0.1333
1146,213,International,0.1333
1147,213,Pop,0.03333
1148,213,Rock,0.03333
1149,214,Electronic,0.6
1150,214,Experimental,0.03333
1151,214,Hip-Hop,0.1333
1152,214,International,0.1666
1153,214,Pop,0.03333
1154,214,Rock,0.03333
1155,215,Electronic,0.6
1156,215,Experimental,0.03333
1157,215,Hip-Hop,0.1333
1158,215,International,0.1666
1159,215,Pop,0.03333
1160,215,Rock,0.03333
1161,216,Electronic,0.6
1162,216,Experimental,0.03333
1163,216,Hip-Hop,0.1333
1164,216,International,0.1666
1165,216,Pop,0.03333
1166,216,Rock,0.03333
1167,217,Electronic,0.6
1168,217,Experimental,0.03333
1169,217,Hip-Hop,0.1333
1170,217,International,0.1666
1171,217,Pop,0.03333
1172,217,Rock,0.03333
1173,218,Electronic,0.6
1174,218,Experimental,0.03333
1175,218,Hip-Hop,0.1333
1176,218,International,0.1666
1177,218,Pop,0.03333
1178,218,Rock,0.03333
1179,219,Electronic,0.6
1180,219,Experimental,0.03333
1181,219,Hip-Hop,0.1333
1182,219,International,0.1666
1183,219,Pop,0.03333
1184,219,Rock,0.03333
1185,220,Electronic,0.6
1186,220,Experimental,0.03333
1187,220,Hip-Hop,0.1333
1188,220,International,0.1666
1189,220,Pop,0.03333
1190,220,Rock,0.03333
1191,221,Electronic,0.6
1192,221,Experimental,0.03333
1193,221,Hip-Hop,0.1666
1194,221,International,0.1333
1195,221,Pop,0.03333
1196,221,Rock,0.03333
1197,222,Electronic,0.6
1198,222,Experimental,0.03333
1199,222,Hip-Hop,0.1666
1200,222,International,0.1333
1201,222,Pop,0.03333
1202,222,Rock,0.03333
1203,223,Electronic,0.6
1204,223,Experimental,0.03333
1205,223,Hip-Hop,0.1666
1206,223,International,0.1333
1207,223,Pop,0.03333
1208,223,Rock,0.03333
1209,224,Electronic,0.6333
1210,224,Experimental,0.03333
1211,224,Hip-Hop,0.1666
1212,224,International,0.1333
1213,224,Rock,0.03333
1214,225,Electronic,0.6333
1215,225,Experimental,0.03333
1216,225,Hip-Hop,0.1666
1217,225,International,0.1333
1218,225,Rock,0.03333
1219,226,Electronic,0.6
1220,226,Experimental,0.03333
1221,226,Hip-Hop,0.1666
1222,226,International,0.1333
1223,226,Rock,0.06665
1224,227,Electronic,0.6
1225,227,Experimental,0.03333
1226,227,Hip-Hop,0.2
1227,227,International,0.1333
1228,227,Rock,0.03333
1229,228,Electronic,0.6
1230,228,Hip-Hop,0.2333
1231,228,International,0.1333
1232,228,Rock,0.03333
1233,229,Electronic,0.6333
1234,229,Hip-Hop,0.2333
1235,229,International,0.1
1236,229,Rock,0.03333
1237,230,Electronic,0.6333
1238,230,Experimental,0.03333
1239,230,Hip-Hop,0.2
1240,230,International,0.1
1241,230,Rock,0.03333
1242,231,Electronic,0.6333
1243,231,Experimental,0.03333
1244,231,Hip-Hop,0.2333
1245,231,International,0.06665
1246,231,Rock,0.03333
1247,232,Electronic,0.6665
1248,232,Experimental,0.03333
1249,232,Hip-Hop,0.2
1250,232,International,0.06665
1251,232,Rock,0.03333
1252,233,Electronic,0.6665
1253,233,Experimental,0.03333
1254,233,Hip-Hop,0.2
1255,233,International,0.06665
1256,233,Rock,0.03333
1257,234,Electronic,0.6665
1258,234,Experimental,0.03333
1259,234,Hip-Hop,0.2
1260,234,International,0.06665
1261,234,Rock,0.03333
1262,235,Electronic,0.6665
1263,235,Experimental,0.03333
1264,235,Hip-Hop,0.2
1265,235,International,0.06665
1266,235,Rock,0.03333
1267,236,Electronic,0.7
1268,236,Experimental,0.03333
1269,236,Hip-Hop,0.1666
1270,236,International,0.06665
1271,236,Rock,0.03333
1272,237,Electronic,0.6665
1273,237,Experimental,0.03333
1274,237,Hip-Hop,0.1666
1275,237,International,0.06665
1276,237,Pop,0.03333
1277,237,Rock,0.03333
1278,238,Electronic,0.6665
1279,238,Experimental,0.03333
1280,238,Hip-Hop,0.1666
1281,238,International,0.06665
1282,238,Pop,0.03333
1283,238,Rock,0.03333
1284,239,Electronic,0.7
1285,239,Experimental,0.03333
1286,239,Hip-Hop,0.1333
1287,239,International,0.06665
1288,239,Pop,0.03333
1289,239,Rock,0.03333
1290,240,Electronic,0.7
1291,240,Experimental,0.03333
1292,240,Hip-Hop,0.1333
1293,240,International,0.06665
1294,240,Pop,0.03333
1295,240,Rock,0.03333
1296,241,Electronic,0.7
1297,241,Experimental,0.03333
1298,241,Hip-Hop,0.1333
1299,241,International,0.06665
1300,241,Pop,0.03333
1301,241,Rock,0.03333
1302,242,Electronic,0.6665
1303,242,Experimental,0.03333
1304,242,Hip-Hop,0.1333
1305,242,International,0.06665
1306,242,Pop,0.03333
1307,242,Rock,0.06665
1308,243,Electronic,0.6665
1309,243,Experimental,0.03333
1310,243,Hip-Hop,0.1333
1311,243,International,0.06665
1312,243,Pop,0.03333
1313,243,Rock,0.06665
1314,244,Electronic,0.6665
1315,244,Experimental,0.06665
1316,244,Hip-Hop,0.1333
1317,244,International,0.03333
1318,244,Pop,0.03333
1319,244,Rock,0.06665
1320,245,Electronic,0.6665
1321,245,Experimental,0.06665
1322,245,Hip-Hop,0.1333
1323,245,International,0.03333
1324,245,Pop,0.03333
1325,245,Rock,0.06665
1326,246,Electronic,0.6665
1327,246,Experimental,0.06665
1328,246,Hip-Hop,0.1333
1329,246,International,0.03333
1330,246,Pop,0.03333
1331,246,Rock,0.06665
1332,247,Electronic,0.6665
1333,247,Experimental,0.06665
1334,247,Hip-Hop,0.1333
1335,247,International,0.03333
1336,247,Pop,0.03333
1337,247,Rock,0.06665
1338,248,Electronic,0.6665
1339,248,Experimental,0.06665
1340,248,Hip-Hop,0.1333
1341,248,International,0.03333
1342,248,Pop,0.03333
1343,248,Rock,0.06665
1344,249,Electronic,0.6665
1345,249,Experimental,0.06665
1346,249,Hip-Hop,0.1333
1347,249,International,0.03333
1348,249,Pop,0.03333
1349,249,Rock,0.06665
1350,250,Electronic,0.6333
1351,250,Experimental,0.06665
1352,250,Hip-Hop,0.1333
1353,250,International,0.06665
1354,250,Pop,0.03333
1355,250,Rock,0.06665
1356,251,Electronic,0.6665
1357,251,Experimental,0.06665
1358,251,Hip-Hop,0.1
1359,251,International,0.06665
1360,251,Pop,0.03333
1361,251,Rock,0.06665
1362,252,Electronic,0.7
1363,252,Experimental,0.06665
1364,252,Hip-Hop,0.1
1365,252,International,0.03333
1366,252,Pop,0.03333
1367,252,Rock,0.06665
1368,253,Electronic,0.7
1369,253,Experimental,0.06665
1370,253,Hip-Hop,0.1
1371,253,International,0.03333
1372,253,Pop,0.03333
1373,253,Rock,0.06665
1374,254,Electronic,0.7
1375,254,Experimental,0.06665
1376,254,Hip-Hop,0.1
1377,254,International,0.03333
1378,254,Pop,0.03333
1379,254,Rock,0.06665
1380,255,Electronic,0.6665
1381,255,Experimental,0.1
1382,255,Hip-Hop,0.1
1383,255,International,0.03333
1384,255,Pop,0.03333
1385,255,Rock,0.06665
1386,256,Electronic,0.7
1387,256,Experimental,0.1
1388,256,Hip-Hop,0.1
1389,256,International,0.03333
1390,256,Pop,0.03333
1391,256,Rock,0.03333
1392,257,Electronic,0.7334
1393,257,Experimental,0.1
1394,257,Hip-Hop,0.06665
1395,257,International,0.03333
1396,257,Pop,0.03333
1397,257,Rock,0.03333
1398,258,Electronic,0.7666
1399,258,Experimental,0.1
1400,258,Hip-Hop,0.03333
1401,258,International,0.03333
1402,258,Pop,0.03333
1403,258,Rock,0.03333
1404,259,Electronic,0.7666
1405,259,Experimental,0.1
1406,259,Hip-Hop,0.03333
1407,259,International,0.03333
1408,259,Pop,0.03333
1409,259,Rock,0.03333
1410,260,Electronic,0.8
1411,260,Experimental,0.06665
1412,260,Hip-Hop,0.03333
1413,260,International,0.03333
1414,260,Pop,0.03333
1415,260,Rock,0.03333
1416,261,Electronic,0.8335
1417,261,Experimental,0.06665
1418,261,International,0.03333
1419,261,Pop,0.03333
1420,261,Rock,0.03333
1421,262,Electronic,0.8335
1422,262,Experimental,0.06665
1423,262,International,0.03333
1424,262,Pop,0.03333
1425,262,Rock,0.03333
1426,263,Electronic,0.8335
1427,263,Experimental,0.06665
1428,263,International,0.03333
1429,263,Pop,0.03333
1430,263,Rock,0.03333
1431,264,Electronic,0.8335
1432,264,Experimental,0.06665
1433,264,International,0.03333
1434,264,Pop,0.03333
1435,264,Rock,0.03333
1436,265,Electronic,0.8335
1437,265,Experimental,0.06665
1438,265,International,0.03333
1439,265,Pop,0.03333
1440,265,Rock,0.03333
1441,266,Electronic,0.8
1442,266,Experimental,0.1
1443,266,International,0.03333
1444,266,Pop,0.03333
1445,266,Rock,0.03333
1446,267,Electronic,0.8335
1447,267,Experimental,0.1
1448,267,International,0.03333
1449,267,Rock,0.03333
1450,268,Electronic,0.8
1451,268,Experimental,0.1
1452,268,International,0.03333
1453,268,Pop,0.03333
1454,268,Rock,0.03333
1455,269,Electronic,0.8
1456,269,Experimental,0.1
1457,269,International,0.03333
1458,269,Pop,0.03333
1459,269,Rock,0.03333
1460,270,Electronic,0.8
1461,270,Experimental,0.1
1462,270,International,0.03333
1463,270,Pop,0.03333
1464,270,Rock,0.03333
1465,271,Electronic,0.8
1466,271,Experimental,0.1
1467,271,International,0.03333
1468,271,Pop,0.03333
1469,271,Rock,0.03333
1470,272,Electronic,0.8335
1471,272,Experimental,0.1
1472,272,International,0.03333
1473,272,Pop,0.03333
1474,273,Electronic,0.8335
1475,273,Experimental,0.1
1476,273,International,0.03333
1477,273,Pop,0.03333
1478,274,Electronic,0.8667
1479,274,Experimental,0.06665
1480,274,International,0.03333
1481,274,Pop,0.03333
1482,275,Electronic,0.8667
1483,275,Experimental,0.06665
1484,275,International,0.03333
1485,275,Pop,0.03333
1486,276,Electronic,0.8667
1487,276,Experimental,0.06665
1488,276,International,0.03333
1489,276,Pop,0.03333
1490,277,Electronic,0.8667
1491,277,Experimental,0.06665
1492,277,International,0.03333
1493,277,Pop,0.03333
1494,278,Electronic,0.8335
1495,278,Experimental,0.06665
1496,278,Hip-Hop,0.03333
1497,278,International,0.03333
1498,278,Pop,0.03333
1499,279,Electronic,0.8335
1500,279,Experimental,0.06665
1501,279,Hip-Hop,0.03333
1502,279,International,0.03333
1503,279,Pop,0.03333
1504,280,Electronic,0.8667
1505,280,Experimental,0.06665
1506,280,Hip-Hop,0.03333
1507,280,Pop,0.03333
1508,281,Electronic,0.8335
1509,281,Experimental,0.06665
1510,281,Hip-Hop,0.03333
1511,281,International,0.03333
1512,281,Pop,0.03333
1513,282,Electronic,0.8
1514,282,Experimental,0.06665
1515,282,Hip-Hop,0.03333
1516,282,International,0.06665
1517,282,Pop,0.03333
1518,283,Electronic,0.8
1519,283,Experimental,0.06665
1520,283,Hip-Hop,0.03333
1521,283,International,0.06665
1522,283,Pop,0.03333
1523,284,Electronic,0.7666
1524,284,Experimental,0.06665
1525,284,Hip-Hop,0.06665
1526,284,International,0.06665
1527,284,Pop,0.03333
1528,285,Electronic,0.8
1529,285,Experimental,0.03333
1530,285,Hip-Hop,0.06665
1531,285,International,0.06665
1532,285,Pop,0.03333
1533,286,Electronic,0.7666
1534,286,Experimental,0.06665
1535,286,Hip-Hop,0.06665
1536,286,International,0.06665
1537,286,Pop,0.03333
1538,287,Electronic,0.7334
1539,287,Experimental,0.06665
1540,287,Hip-Hop,0.1
1541,287,International,0.06665
1542,287,Pop,0.03333
1543,288,Electronic,0.7
1544,288,Experimental,0.06665
1545,288,Hip-Hop,0.1
1546,288,International,0.06665
1547,288,Pop,0.06665
1548,289,Electronic,0.7
1549,289,Experimental,0.06665
1550,289,Hip-Hop,0.1
1551,289,International,0.06665
1552,289,Pop,0.06665
1553,290,Electronic,0.7
1554,290,Experimental,0.06665
1555,290,Hip-Hop,0.1
1556,290,International,0.06665
1557,290,Pop,0.06665
1558,291,Electronic,0.7
1559,291,Experimental,0.06665
1560,291,Hip-Hop,0.1
1561,291,International,0.06665
1562,291,Pop,0.06665
1563,292,Electronic,0.6665
1564,292,Experimental,0.06665
1565,292,Hip-Hop,0.1
1566,292,International,0.1
1567,292,Pop,0.06665
1568,293,Electronic,0.6333
1569,293,Experimental,0.06665
1570,293,Hip-Hop,0.1
1571,293,International,0.1333
1572,293,Pop,0.06665
1573,294,Electronic,0.6333
1574,294,Experimental,0.06665
1575,294,Hip-Hop,0.1
1576,294,International,0.1333
1577,294,Pop,0.06665
1578,295,Electronic,0.6333
1579,295,Experimental,0.06665
1580,295,Hip-Hop,0.1
1581,295,International,0.1333
1582,295,Pop,0.06665
1583,296,Electronic,0.6665
1584,296,Experimental,0.03333
1585,296,Hip-Hop,0.1
1586,296,International,0.1333
1587,296,Pop,0.06665
1588,297,Electronic,0.6665
1589,297,Experimental,0.03333
1590,297,Hip-Hop,0.1
1591,297,International,0.1333
1592,297,Pop,0.06665
1593,298,Electronic,0.7
1594,298,Experimental,0.03333
1595,298,Hip-Hop,0.1
1596,298,International,0.1333
1597,298,Pop,0.03333
1598,299,Electronic,0.7
1599,299,Experimental,0.03333
1600,299,Hip-Hop,0.1
1601,299,International,0.1333
1602,299,Pop,0.03333
1603,300,Electronic,0.7
1604,300,Experimental,0.03333
1605,300,Hip-Hop,0.1
1606,300,International,0.1333
1607,300,Pop,0.03333
1608,301,Electronic,0.7
1609,301,Experimental,0.03333
1610,301,Hip-Hop,0.1
1611,301,International,0.1333
1612,301,Pop,0.03333
1613,302,Electronic,0.7
1614,302,Experimental,0.03333
1615,302,Hip-Hop,0.1
1616,302,International,0.1333
1617,302,Pop,0.03333
1618,303,Electronic,0.7
1619,303,Experimental,0.03333
1620,303,Hip-Hop,0.1
1621,303,International,0.1333
1622,303,Pop,0.03333
1623,304,Electronic,0.6665
1624,304,Experimental,0.06665
1625,304,Hip-Hop,0.1
1626,304,International,0.1333
1627,304,Pop,0.03333
1628,305,Electronic,0.6665
1629,305,Experimental,0.06665
1630,305,Hip-Hop,0.1
1631,305,International,0.1333
1632,305,Pop,0.03333
1633,306,Electronic,0.6333
1634,306,Experimental,0.06665
1635,306,Hip-Hop,0.1333
1636,306,International,0.1333
1637,306,Pop,0.03333
1638,307,Electronic,0.6333
1639,307,Experimental,0.06665
1640,307,Hip-Hop,0.1333
1641,307,International,0.1333
1642,307,Pop,0.03333
1643,308,Electronic,0.6665
1644,308,Experimental,0.06665
1645,308,Hip-Hop,0.1
1646,308,International,0.1333
1647,308,Pop,0.03333
1648,309,Electronic,0.6665
1649,309,Experimental,0.06665
1650,309,Hip-Hop,0.1
1651,309,International,0.1333
1652,309,Pop,0.03333
1653,310,Electronic,0.6333
1654,310,Experimental,0.1
1655,310,Hip-Hop,0.1
1656,310,International,0.1333
1657,310,Pop,0.03333
1658,311,Electronic,0.6665
1659,311,Experimental,0.1
1660,311,Hip-Hop,0.1
1661,311,International,0.1
1662,311,Pop,0.03333
1663,312,Electronic,0.7
1664,312,Experimental,0.1
1665,312,Hip-Hop,0.1
1666,312,International,0.06665
1667,312,Pop,0.03333
1668,313,Electronic,0.7
1669,313,Experimental,0.1
1670,313,Hip-Hop,0.1
1671,313,International,0.06665
1672,313,Pop,0.03333
1673,314,Electronic,0.7334
1674,314,Experimental,0.1
1675,314,Hip-Hop,0.06665
1676,314,International,0.06665
1677,314,Pop,0.03333
1678,315,Electronic,0.7334
1679,315,Experimental,0.1
1680,315,Hip-Hop,0.06665
1681,315,International,0.06665
1682,315,Pop,0.03333
1683,316,Electronic,0.7666
1684,316,Experimental,0.06665
1685,316,Hip-Hop,0.06665
1686,316,International,0.06665
1687,316,Pop,0.03333
1688,317,Electronic,0.8
1689,317,Experimental,0.06665
1690,317,Hip-Hop,0.03333
1691,317,International,0.06665
1692,317,Pop,0.03333
1693,318,Electronic,0.8335
1694,318,Experimental,0.06665
1695,318,Hip-Hop,0.03333
1696,318,International,0.06665
1697,319,Electronic,0.8335
1698,319,Experimental,0.06665
1699,319,Hip-Hop,0.03333
1700,319,International,0.06665
1701,320,Electronic,0.8
1702,320,Experimental,0.06665
1703,320,Hip-Hop,0.06665
1704,320,International,0.06665
1705,321,Electronic,0.8
1706,321,Experimental,0.06665
1707,321,Hip-Hop,0.06665
1708,321,International,0.06665
1709,322,Electronic,0.8335
1710,322,Experimental,0.06665
1711,322,Hip-Hop,0.06665
1712,322,International,0.03333
1713,323,Electronic,0.8667
1714,323,Experimental,0.06665
1715,323,Hip-Hop,0.06665
1716,324,Electronic,0.8667
1717,324,Experimental,0.06665
1718,324,Hip-Hop,0.06665
1719,325,Electronic,0.8667
1720,325,Experimental,0.06665
1721,325,Hip-Hop,0.06665
1722,326,Electronic,0.8667
1723,326,Experimental,0.06665
1724,326,Hip-Hop,0.06665
1725,327,Electronic,0.8667
1726,327,Experimental,0.06665
1727,327,Hip-Hop,0.06665
1728,328,Electronic,0.8667
1729,328,Experimental,0.06665
1730,328,Hip-Hop,0.06665
1731,329,Electronic,0.8667
1732,329,Experimental,0.06665
1733,329,Hip-Hop,0.06665
1734,330,Electronic,0.8667
1735,330,Experimental,0.06665
1736,330,Hip-Hop,0.06665
1737,331,Electronic,0.8667
1738,331,Experimental,0.06665
1739,331,Hip-Hop,0.06665
1740,332,Electronic,0.8667
1741,332,Experimental,0.06665
1742,332,Hip-Hop,0.06665
1743,333,Electronic,0.8667
1744,333,Experimental,0.06665
1745,333,Hip-Hop,0.06665
1746,334,Electronic,0.9
1747,334,Experimental,0.03333
1748,334,Hip-Hop,0.06665
1749,335,Electronic,0.9
1750,335,Experimental,0.03333
1751,335,Hip-Hop,0.06665
1752,336,Electronic,0.933
1753,336,Experimental,0.03333
1754,336,Hip-Hop,0.03333
1755,337,Electronic,0.933
1756,337,Experimental,0.03333
1757,337,Hip-Hop,0.03333
1758,338,Electronic,0.933
1759,338,Experimental,0.03333
1760,338,Hip-Hop,0.03333
1761,339,Electronic,0.933
1762,339,Experimental,0.03333
1763,339,Hip-Hop,0.03333
1764,340,Electronic,0.967
1765,340,Hip-Hop,0.03333
1766,341,Electronic,0.933
1767,341,Hip-Hop,0.03333
1768,341,International,0.03333
1769,342,Electronic,0.9
1770,342,Hip-Hop,0.03333
1771,342,International,0.03333
1772,342,Rock,0.03333
1773,343,Electronic,0.9
1774,343,Hip-Hop,0.03333
1775,343,International,0.03333
1776,343,Rock,0.03333
1777,344,Electronic,0.9
1778,344,Hip-Hop,0.03333
1779,344,International,0.03333
1780,344,Rock,0.03333
1781,345,Electronic,0.9
1782,345,Hip-Hop,0.03333
1783,345,International,0.03333
1784,345,Rock,0.03333
1785,346,Electronic,0.9
1786,346,Hip-Hop,0.03333
1787,346,International,0.03333
1788,346,Rock,0.03333
1789,347,Electronic,0.8667
1790,347,Hip-Hop,0.06665
1791,347,International,0.03333
1792,347,Rock,0.03333
1793,348,Electronic,0.8667
1794,348,Hip-Hop,0.06665
1795,348,International,0.03333
1796,348,Rock,0.03333
1797,349,Electronic,0.8667
1798,349,Hip-Hop,0.06665
1799,349,International,0.03333
1800,349,Rock,0.03333
1801,350,Electronic,0.9
1802,350,Hip-Hop,0.03333
1803,350,International,0.03333
1804,350,Rock,0.03333
1805,351,Electronic,0.9
1806,351,Hip-Hop,0.03333
1807,351,International,0.03333
1808,351,Rock,0.03333
1809,352,Electronic,0.9
1810,352,Hip-Hop,0.03333
1811,352,International,0.03333
1812,352,Rock,0.03333
1813,353,Electronic,0.9
1814,353,Hip-Hop,0.03333
1815,353,International,0.03333
1816,353,Rock,0.03333
1817,354,Electronic,0.8667
1818,354,Experimental,0.03333
1819,354,Hip-Hop,0.03333
1820,354,International,0.03333
1821,354,Rock,0.03333
1822,355,Electronic,0.8667
1823,355,Experimental,0.03333
1824,355,Hip-Hop,0.03333
1825,355,International,0.03333
1826,355,Rock,0.03333
1827,356,Electronic,0.8667
1828,356,Experimental,0.03333
1829,356,Hip-Hop,0.03333
1830,356,International,0.03333
1831,356,Rock,0.03333
1832,357,Electronic,0.8335
1833,357,Experimental,0.03333
1834,357,Hip-Hop,0.03333
1835,357,International,0.03333
1836,357,Rock,0.03333
1837,358,Electronic,0.8
1838,358,Experimental,0.03333
1839,358,Hip-Hop,0.03333
1840,358,International,0.03333
1841,358,Rock,0.03333
1842,359,Electronic,0.7666
1843,359,Experimental,0.03333
1844,359,Hip-Hop,0.03333
1845,359,International,0.03333
1846,359,Rock,0.03333
1847,360,Electronic,0.7334
1848,360,Experimental,0.03333
1849,360,Hip-Hop,0.03333
1850,360,International,0.03333
1851,360,Rock,0.03333
1852,361,Electronic,0.7
1853,361,Experimental,0.03333
1854,361,Hip-Hop,0.03333
1855,361,International,0.03333
1856,361,Rock,0.03333
1857,362,Electronic,0.6665
1858,362,Experimental,0.03333
1859,362,Hip-Hop,0.03333
1860,362,International,0.03333
1861,362,Rock,0.03333
1862,363,Electronic,0.6333
1863,363,Experimental,0.03333
1864,363,Hip-Hop,0.03333
1865,363,International,0.03333
1866,363,Rock,0.03333
1867,364,Electronic,0.6
1868,364,Experimental,0.03333
1869,364,Hip-Hop,0.03333
1870,364,International,0.03333
1871,364,Rock,0.03333
1872,365,Electronic,0.567
1873,365,Experimental,0.03333
1874,365,Hip-Hop,0.03333
1875,365,International,0.03333
1876,365,Rock,0.03333
1877,366,Electronic,0.533
1878,366,Experimental,0.03333
1879,366,Hip-Hop,0.03333
1880,366,International,0.03333
1881,366,Rock,0.03333
1882,367,Electronic,0.5
1883,367,Experimental,0.03333
1884,367,Hip-Hop,0.03333
1885,367,International,0.03333
1886,367,Rock,0.03333
1887,368,Electronic,0.4666
1888,368,Experimental,0.03333
1889,368,Hip-Hop,0.03333
1890,368,International,0.03333
1891,368,Rock,0.03333
1892,369,Electronic,0.4333
1893,369,Experimental,0.03333
1894,369,Hip-Hop,0.03333
1895,369,International,0.03333
1896,369,Rock,0.03333
1897,370,Electronic,0.4
1898,370,Experimental,0.03333
1899,370,Hip-Hop,0.03333
1900,370,International,0.03333
1901,370,Rock,0.03333
1902,371,Electronic,0.4
1903,371,Experimental,0.03333
1904,371,Hip-Hop,0.03333
1905,371,Rock,0.03333
1906,372,Electronic,0.4
1907,372,Experimental,0.03333
1908,372,Hip-Hop,0.03333
1909,373,Electronic,0.3667
1910,373,Experimental,0.03333
1911,373,Hip-Hop,0.03333
1912,374,Electronic,0.3333
1913,374,Experimental,0.03333
1914,374,Hip-Hop,0.03333
1915,375,Electronic,0.3
1916,375,Experimental,0.03333
1917,375,Hip-Hop,0.03333
1918,376,Electronic,0.2666
1919,376,Experimental,0.03333
1920,376,Hip-Hop,0.03333
1921,377,Electronic,0.2666
1922,377,Experimental,0.03333
1923,378,Electronic,0.2333
1924,378,Experimental,0.03333
1925,379,Electronic,0.2
1926,379,Experimental,0.03333
1927,380,Electronic,0.1666
1928,380,Experimental,0.03333
1929,381,Electronic,0.1333
1930,381,Experimental,0.03333
1931,382,Electronic,0.1
1932,382,Experimental,0.03333
1933,383,Electronic,0.06665
1934,383,Experimental,0.03333
1935,384,Electronic,0.06665
1936,385,Electronic,0.03333
